%!PS-Adobe-2.0 EPSF-2.0
%%BoundingBox: 0 0 432 288
%%Creator: Ox (C) J.A. Doornik, 1994-2006.
%%Pages: 0
%%EndComments

%functions
/X    0 def
/Y    0 def
/Rot  0 def
/tabX 0 def
/tabW 0 def
/colW 0 def
/Slt      { Ltp 0 setdash Lwd setlinewidth } def
/Solid    { [ ] 0 setdash Lwd setlinewidth } def
/Mto      { /Y exch def /X exch def X Y moveto} def
/Lto      { gsave dup 3 -1 roll dup 4 -1 roll newpath X Y moveto lineto stroke exch Mto grestore } def
/mt       { moveto } def
/lt       { lineto } def
/Rt       { rmoveto currentpoint Mto} def
/Rlt      { 2 copy currentpoint gsave newpath moveto rlineto stroke grestore Rt } def
/BgnPath  { gsave newpath } def
/EndPath  { stroke grestore} def
/Width    { /H exch def /W exch def } def
/SymBox   { newpath X Y moveto X W add Y lineto X W add Y H add lineto X Y H add lineto X Y lineto closepath } bind def
/SymTriUp { newpath X Y moveto X W 2 div add Y H add lineto X W add Y lineto X Y lineto closepath } bind def
/SymTri   { newpath X Y H add moveto X W 2 div add Y lineto X W add Y H add lineto X Y H add lineto closepath } bind def
/SymTriUp { newpath X Y moveto X W 2 div add Y H add lineto X W add Y lineto X Y lineto closepath } bind def
/SymCross { newpath X Y moveto X W add Y H add lineto X W add Y moveto X Y H add lineto closepath } bind def
/SymPlus  { newpath X Y H 2 div add moveto X W add Y H 2 div add lineto X W 2 div add Y moveto X W 2 div add Y H add lineto closepath } bind def
/SymDiam  { newpath X Y H 2 div add moveto X W 2 div add Y H add lineto X W add Y H 2 div add lineto  X W 2 div add Y lineto X Y H 2 div add lineto closepath } bind def
/SymCirc  { 1 H W div scale newpath X W 2 div add Y H 2 div add W H div mul W 2 div 0 360 arc closepath } bind def
/SymDash  { newpath X Y H 2 div add moveto X W add Y H 2 div add lineto closepath } bind def
/FillStr  { closepath gsave FillColor fill grestore stroke grestore } def
/Fill     { closepath FillColor fill grestore } def
/FillBox  { gsave Width SymBox fill grestore } def
/Box      { gsave Width SymBox Solid stroke grestore } def
/Boxto    { currentpoint Mto Y sub exch X sub exch Box} def
/FillBoxto{ currentpoint Mto Y sub exch X sub exch FillBox} def
/Plus     { gsave Width SymPlus Solid stroke grestore } def
/FillCir  { gsave Width SymCirc fill stroke grestore } def
/Circle   { gsave Width SymCirc Solid stroke grestore } def
/Dash     { gsave Width SymDash Solid stroke grestore } def
/Cross    { gsave Width SymCross Solid stroke grestore } def
/FillDiam { gsave Width SymDiam fill stroke grestore } def
/Diam     { gsave Width SymDiam Solid stroke grestore } def
/FillTri  { gsave Width SymTri  fill stroke grestore } def
/Tri      { gsave Width SymTri  Solid stroke grestore } def
/FillTriUp{ gsave Width SymTriUp fill stroke grestore } def
/TriUp    { gsave Width SymTriUp Solid stroke grestore } def
/Text     { gsave X Y moveto
            Rot 360 eq {dup stringwidth pop neg 0 rmoveto}{Rot rotate} ifelse
            show grestore
          } def
/T        { gsave
            Rot 360 eq {dup stringwidth pop neg 0 rmoveto}{Rot rotate} ifelse
            show Rot neg rotate currentpoint Mto grestore X Y moveto} def
/tb0      { /tabX currentpoint pop def /tabW 0 def} def
/tb1      { tabW currentpoint pop tabX sub gt {tabW}{currentpoint pop tabX sub} ifelse /tabW exch def } def
/tb2      { /colW tabW def } def
/tb3      { colW 0 rmoveto } def
/A4       { /ptX 595.3 def /ptY 841.9 def } def
/Letter   { /ptX 612 def /ptY 792 def } def
/ISOLatin1{ findfont
            dup length dict
            begin { 1 index /FID ne {def}{pop pop} ifelse } forall
              /Encoding ISOLatin1Encoding def
              currentdict
            end definefont pop } def
/Font     { findfont exch scalefont setfont } def
/FullPage { Landscape 1 eq { ptX ptY /ptX exch def /ptY exch def } if
            ptX 1.5 div ptY le
            {/ax ptX def /ay ptX 1.5 mul def}
            {/ax ptY 1.5 div def /ay ptY def} ifelse
            /ax ax 17000 div def ax ax scale
            Landscape 1 eq { 90 rotate 0 ptY ax div neg translate } if
            ptX ax div 15000 sub 2 div ptY ax div 10000 sub 2 div translate
          } def
/EpsPage  { 0.0288 0.0288 scale } def

%lines
/Linetype0 [ ] def  /Linewidth0 10 def
/Linetype1 [ ] def  /Linewidth1 6 def
/Linetype2 [ ] def  /Linewidth2 10 def
/Linetype3 [ ] def  /Linewidth3 10 def
/Linetype4 [ ] def  /Linewidth4 10 def
/Linetype5 [35 35] def  /Linewidth5 10 def
/Linetype6 [35 35] def  /Linewidth6 20 def
/Linetype7 [35 35] def  /Linewidth7 30 def
/Linetype8 [160 80] def  /Linewidth8 10 def
/Linetype9 [160 80] def  /Linewidth9 20 def
/Linetype10 [160 80] def  /Linewidth10 30 def
/Linetype11 [ ] def  /Linewidth11 20 def
/Linetype12 [ ] def  /Linewidth12 30 def
/Linetype13 [ ] def  /Linewidth13 50 def
/Linetype14 [ ] def  /Linewidth14 10 def
/Linetype15 [ ] def  /Linewidth15 10 def

%fonts
/F0 /Times-Roman ISOLatin1
/F1 /Symbol findfont definefont pop
/F2 /Times-Bold ISOLatin1
/F3 /Times-Italic ISOLatin1
/F4 /Times-BoldItalic ISOLatin1
/F5 /Helvetica ISOLatin1
/F6 /Courier ISOLatin1
/F7 /Times-Roman ISOLatin1
/F8 /Times-Roman ISOLatin1
/F9 /Times-Roman ISOLatin1

%colors
/BWG  16 array def
/Gray 16 array def
/RGB  16 array def
% first set all to black
0 1 15 { dup Gray exch 0 put RGB exch [0 0 0] put } for

% color 0: white <-- background colour
% color 1: black <-- foreground colour
BWG  0 1.00 put  Gray  0 1.00 put  RGB  0 [1.00 1.00 1.00] put
BWG  1 0.00 put  Gray  1 0.00 put  RGB  1 [0.00 0.00 0.00] put
BWG  2 0.00 put  Gray  2 0.30 put  RGB  2 [1.00 0.00 0.00] put
BWG  3 0.00 put  Gray  3 0.11 put  RGB  3 [0.00 0.00 1.00] put
BWG  4 0.00 put  Gray  4 0.35 put  RGB  4 [0.00 0.50 0.50] put
BWG  5 0.00 put  Gray  5 0.41 put  RGB  5 [1.00 0.00 1.00] put
BWG  6 0.00 put  Gray  6 0.44 put  RGB  6 [0.00 0.75 0.00] put
BWG  7 0.00 put  Gray  7 0.45 put  RGB  7 [0.50 0.50 0.00] put
BWG  8 0.20 put  Gray  8 0.21 put  RGB  8 [0.50 0.00 0.50] put
BWG  9 0.95 put  Gray  9 0.95 put  RGB  9 [1.00 1.00 0.50] put
BWG 10 0.79 put  Gray 10 0.80 put  RGB 10 [0.50 1.00 0.50] put
BWG 11 0.85 put  Gray 11 0.85 put  RGB 11 [0.50 1.00 1.00] put
BWG 12 0.70 put  Gray 12 0.70 put  RGB 12 [0.00 1.00 1.00] put
BWG 13 0.25 put  Gray 13 0.25 put  RGB 13 [0.25 0.25 0.25] put
BWG 14 0.50 put  Gray 14 0.50 put  RGB 14 [0.50 0.50 0.50] put
BWG 15 0.75 put  Gray 15 0.75 put  RGB 15 [0.75 0.75 0.75] put

%choose a ColorModel: 0=black/white; 1=black/white/gray; 2=gray; 3=color
/ColorModel 3 def

/SetColor
  { ColorModel 0 eq
     { 0 eq {1 setgray}{0 setgray} ifelse }
     { ColorModel 1 eq
        { BWG exch get setgray}
        { ColorModel 2 eq
           { Gray exch get setgray}
           { RGB exch get aload pop setrgbcolor} ifelse
        } ifelse
     } ifelse
} def
/FillColor
  { ColorModel 3 eq
     { setrgbcolor }
     { add add 3 div setgray }
     ifelse
} def

%init
save
1 setlinejoin
280 /F0 Font
10 setlinewidth
/Ltp Linetype1 def
/Lwd Linewidth1 def

/User { /ptX 0 def /ptY 0 def} def
%.PS uses full page printing
%  select papersize: A4, Letter, User (in points: 72/inch)
%  select orientation: 0 portrait mode, 1 landscape
%  full page printing for .PS, else use EpsPage
%.EPS defers scaling/rotation to document

EpsPage
%A4  /Landscape 1 def  FullPage

%Graph start
0 SetColor
330 /F0 Font
1071 8886 Mto
300 /F0 Font
tb0
1071 8886 Mto
2 SetColor
/Ltp { Linetype2 } def /Lwd { Linewidth2 } def Slt
100 100 Rt
600 0 Rlt
100 -100 Rt
1 SetColor
(h1 )T
tb1
1871 8586 Mto
1071 8586 Mto
4 SetColor
/Ltp { Linetype4 } def /Lwd { Linewidth4 } def Slt
100 100 Rt
600 0 Rlt
100 -100 Rt
1 SetColor
(o1 )T
tb1
1871 8286 Mto
tb2
1071 8886 Mto
tb3
3 SetColor
/Ltp { Linetype3 } def /Lwd { Linewidth3 } def Slt
100 100 Rt
600 0 Rlt
100 -100 Rt
1 SetColor
(h2 )T
tb1
1871 8586 Mto
1071 8586 Mto
tb3
5 SetColor
/Ltp { Linetype5 } def /Lwd { Linewidth5 } def Slt
100 100 Rt
600 0 Rlt
100 -100 Rt
1 SetColor
(o2 )T
tb1
1871 8286 Mto
tb2
0 SetColor
1071 8586 Mto
tb3
0 -100 Rt
1071 9186 FillBoxto
1 SetColor
/Ltp { Linetype1 } def /Lwd { Linewidth1 } def Slt
800 640 Mto
800 700 Lto
1065 640 Mto
1065 700 Lto
1331 640 Mto
1331 700 Lto
1597 640 Mto
1597 700 Lto
1863 640 Mto
1863 700 Lto
2129 640 Mto
2129 700 Lto
2395 640 Mto
2395 700 Lto
2661 640 Mto
2661 700 Lto
2927 640 Mto
2927 700 Lto
3192 640 Mto
3192 700 Lto
3458 640 Mto
3458 700 Lto
3724 640 Mto
3724 700 Lto
3990 640 Mto
3990 700 Lto
4256 640 Mto
4256 700 Lto
4522 640 Mto
4522 700 Lto
4788 640 Mto
4788 700 Lto
5054 640 Mto
5054 700 Lto
5319 640 Mto
5319 700 Lto
5585 640 Mto
5585 700 Lto
5851 640 Mto
5851 700 Lto
6117 640 Mto
6117 700 Lto
6383 640 Mto
6383 700 Lto
6649 640 Mto
6649 700 Lto
6915 640 Mto
6915 700 Lto
7181 640 Mto
7181 700 Lto
7447 640 Mto
7447 700 Lto
7712 640 Mto
7712 700 Lto
7978 640 Mto
7978 700 Lto
8244 640 Mto
8244 700 Lto
8510 640 Mto
8510 700 Lto
8776 640 Mto
8776 700 Lto
9042 640 Mto
9042 700 Lto
9308 640 Mto
9308 700 Lto
9574 640 Mto
9574 700 Lto
9839 640 Mto
9839 700 Lto
10105 640 Mto
10105 700 Lto
10371 640 Mto
10371 700 Lto
10637 640 Mto
10637 700 Lto
10903 640 Mto
10903 700 Lto
11169 640 Mto
11169 700 Lto
11435 640 Mto
11435 700 Lto
11701 640 Mto
11701 700 Lto
11967 640 Mto
11967 700 Lto
12232 640 Mto
12232 700 Lto
12498 640 Mto
12498 700 Lto
12764 640 Mto
12764 700 Lto
13030 640 Mto
13030 700 Lto
13296 640 Mto
13296 700 Lto
13562 640 Mto
13562 700 Lto
13828 640 Mto
13828 700 Lto
14094 640 Mto
14094 700 Lto
14359 640 Mto
14359 700 Lto
800 640 Mto
800 760 Lto
731 340 Mto
(0) T
2129 640 Mto
2129 760 Lto
1990 340 Mto
(10)T
3458 640 Mto
3458 760 Lto
3319 340 Mto
(20)T
4788 640 Mto
4788 760 Lto
4649 340 Mto
(30)T
6117 640 Mto
6117 760 Lto
5978 340 Mto
(40)T
7447 640 Mto
7447 760 Lto
7308 340 Mto
(50)T
8776 640 Mto
8776 760 Lto
8637 340 Mto
(60)T
10105 640 Mto
10105 760 Lto
9966 340 Mto
(70)T
11435 640 Mto
11435 760 Lto
11296 340 Mto
(80)T
12764 640 Mto
12764 760 Lto
12625 340 Mto
(90)T
14094 640 Mto
14094 760 Lto
13885 340 Mto
(100)T
800 640 Mto
14359 640 Lto
14 SetColor
/Ltp { Linetype14 } def /Lwd { Linewidth14 } def Slt
800 6090 Mto
14359 6090 Lto
1 SetColor
/Ltp { Linetype1 } def /Lwd { Linewidth1 } def Slt
/Rot 360 def
800 912 Mto
860 912 Lto
800 1184 Mto
860 1184 Lto
800 1457 Mto
860 1457 Lto
800 1729 Mto
860 1729 Lto
800 2002 Mto
860 2002 Lto
800 2275 Mto
860 2275 Lto
800 2547 Mto
860 2547 Lto
800 2820 Mto
860 2820 Lto
800 3092 Mto
860 3092 Lto
800 3365 Mto
860 3365 Lto
800 3637 Mto
860 3637 Lto
800 3910 Mto
860 3910 Lto
800 4182 Mto
860 4182 Lto
800 4455 Mto
860 4455 Lto
800 4727 Mto
860 4727 Lto
800 5000 Mto
860 5000 Lto
800 5272 Mto
860 5272 Lto
800 5545 Mto
860 5545 Lto
800 5817 Mto
860 5817 Lto
800 6090 Mto
860 6090 Lto
800 6362 Mto
860 6362 Lto
800 6635 Mto
860 6635 Lto
800 6907 Mto
860 6907 Lto
800 7180 Mto
860 7180 Lto
800 7452 Mto
860 7452 Lto
800 7725 Mto
860 7725 Lto
800 7997 Mto
860 7997 Lto
800 8270 Mto
860 8270 Lto
800 8542 Mto
860 8542 Lto
800 8815 Mto
860 8815 Lto
800 9087 Mto
860 9087 Lto
800 2002 Mto
920 2002 Lto
750 1902 Mto
(\2553)T
800 3365 Mto
920 3365 Lto
750 3265 Mto
(\2552)T
800 4727 Mto
920 4727 Lto
750 4627 Mto
(\2551)T
800 6090 Mto
920 6090 Lto
750 5990 Mto
(0) T
800 7452 Mto
920 7452 Lto
750 7352 Mto
(1) T
800 8815 Mto
920 8815 Lto
750 8715 Mto
(2) T
800 640 Mto
800 9359 Lto
/Rot 0 def
2 SetColor
/Ltp { Linetype2 } def /Lwd { Linewidth2 } def Slt
2 SetColor
/Ltp { Linetype2 } def /Lwd { Linewidth2 } def Slt
BgnPath
932 7229 mt
1065 7023 lt
1198 6918 lt
1331 6907 lt
1464 7064 lt
1597 7225 lt
1730 7200 lt
1863 7277 lt
1996 7281 lt
2129 7319 lt
2262 7317 lt
2395 7206 lt
2528 7347 lt
2661 7385 lt
2794 7168 lt
2927 7089 lt
3059 6896 lt
3192 6883 lt
3325 6873 lt
3458 6881 lt
3591 6781 lt
3724 6715 lt
3857 6774 lt
3990 6815 lt
4123 6527 lt
4256 6448 lt
4389 6408 lt
4522 6391 lt
4655 6327 lt
4788 5963 lt
4921 6150 lt
5054 5997 lt
5187 6126 lt
5319 6122 lt
5452 5824 lt
5585 5906 lt
5718 5698 lt
5851 5700 lt
5984 6055 lt
6117 6004 lt
6250 6142 lt
6383 6111 lt
6516 6090 lt
6649 6052 lt
6782 5911 lt
6915 5751 lt
7048 5948 lt
7181 6050 lt
7314 5996 lt
7447 5792 lt
7579 5651 lt
7712 5773 lt
7845 5612 lt
7978 5716 lt
8111 5599 lt
8244 5478 lt
8377 5492 lt
8510 5662 lt
8643 5643 lt
8776 5510 lt
8909 5580 lt
9042 5492 lt
9175 5756 lt
9308 5976 lt
9441 6169 lt
9574 6125 lt
9707 6066 lt
9839 5969 lt
9972 5819 lt
10105 5756 lt
10238 5786 lt
10371 5797 lt
10504 5710 lt
10637 5569 lt
10770 5625 lt
10903 5555 lt
11036 5711 lt
11169 5770 lt
11302 5709 lt
11435 5753 lt
11568 5892 lt
11701 5807 lt
11834 5917 lt
11967 6107 lt
12099 6206 lt
12232 6020 lt
12365 5948 lt
12498 5741 lt
12631 5656 lt
12764 5794 lt
12897 5943 lt
13030 5850 lt
13163 5695 lt
13296 5767 lt
13429 5806 lt
13562 5924 lt
13695 6081 lt
13828 6183 lt
13961 6128 lt
14094 5887 lt
EndPath
3 SetColor
/Ltp { Linetype3 } def /Lwd { Linewidth3 } def Slt
3 SetColor
/Ltp { Linetype3 } def /Lwd { Linewidth3 } def Slt
BgnPath
932 7344 mt
1065 6396 lt
1198 6689 lt
1331 7059 lt
1464 7868 lt
1597 7678 lt
1730 7551 lt
1863 7458 lt
1996 7465 lt
2129 7365 lt
2262 6926 lt
2395 6779 lt
2528 6509 lt
2661 6578 lt
2794 6496 lt
2927 6315 lt
3059 6232 lt
3192 5447 lt
3325 6551 lt
3458 6712 lt
3591 5891 lt
3724 5877 lt
3857 5478 lt
3990 6091 lt
4123 5610 lt
4256 5385 lt
4389 5344 lt
4522 5028 lt
4655 5746 lt
4788 5547 lt
4921 5830 lt
5054 6590 lt
5187 6750 lt
5319 6418 lt
5452 7572 lt
5585 7183 lt
5718 6660 lt
5851 6558 lt
5984 7218 lt
6117 7940 lt
6250 7997 lt
6383 8274 lt
6516 8819 lt
6649 8755 lt
6782 8359 lt
6915 7542 lt
7048 7379 lt
7181 7199 lt
7314 7251 lt
7447 7719 lt
7579 6402 lt
7712 6534 lt
7845 5974 lt
7978 6093 lt
8111 5646 lt
8244 5474 lt
8377 4785 lt
8510 5045 lt
8643 3969 lt
8776 2488 lt
8909 2397 lt
9042 2390 lt
9175 3348 lt
9308 3647 lt
9441 4245 lt
9574 4421 lt
9707 4031 lt
9839 4075 lt
9972 3917 lt
10105 3413 lt
10238 3281 lt
10371 3720 lt
10504 3104 lt
10637 2925 lt
10770 2646 lt
10903 2744 lt
11036 3653 lt
11169 3877 lt
11302 3638 lt
11435 3454 lt
11568 3559 lt
11701 3319 lt
11834 2982 lt
11967 3119 lt
12099 1349 lt
12232 1866 lt
12365 1693 lt
12498 1759 lt
12631 1982 lt
12764 1996 lt
12897 2509 lt
13030 2016 lt
13163 1889 lt
13296 2473 lt
13429 2583 lt
13562 2971 lt
13695 3215 lt
13828 2958 lt
13961 2709 lt
14094 2521 lt
EndPath
4 SetColor
/Ltp { Linetype4 } def /Lwd { Linewidth4 } def Slt
4 SetColor
/Ltp { Linetype4 } def /Lwd { Linewidth4 } def Slt
BgnPath
932 6004 mt
1065 8530 lt
1198 6475 lt
1331 8022 lt
1464 6767 lt
1597 8028 lt
1730 7507 lt
1863 7637 lt
1996 8180 lt
2129 6629 lt
2262 7234 lt
2395 6764 lt
2528 5709 lt
2661 7562 lt
2794 6584 lt
2927 6826 lt
3059 7048 lt
3192 7891 lt
3325 7587 lt
3458 6952 lt
3591 6587 lt
3724 6839 lt
3857 6600 lt
3990 7705 lt
4123 6485 lt
4256 7087 lt
4389 5777 lt
4522 8474 lt
4655 6295 lt
4788 5767 lt
4921 6648 lt
5054 6532 lt
5187 6441 lt
5319 5074 lt
5452 6911 lt
5585 5679 lt
5718 3911 lt
5851 4997 lt
5984 6694 lt
6117 5031 lt
6250 5895 lt
6383 5962 lt
6516 6369 lt
6649 5654 lt
6782 7115 lt
6915 6692 lt
7048 5563 lt
7181 6883 lt
7314 6663 lt
7447 6165 lt
7579 5872 lt
7712 6360 lt
7845 4928 lt
7978 6444 lt
8111 5439 lt
8244 4293 lt
8377 6361 lt
8510 5449 lt
8643 5950 lt
8776 5586 lt
8909 7096 lt
9042 5725 lt
9175 5308 lt
9308 7148 lt
9441 5727 lt
9574 5187 lt
9707 5484 lt
9839 5462 lt
9972 5407 lt
10105 5247 lt
10238 6124 lt
10371 5977 lt
10504 5673 lt
10637 5045 lt
10770 6536 lt
10903 5734 lt
11036 5571 lt
11169 6276 lt
11302 5378 lt
11435 6898 lt
11568 5809 lt
11701 7732 lt
11834 5573 lt
11967 5768 lt
12099 5103 lt
12232 5919 lt
12365 5996 lt
12498 6027 lt
12631 6814 lt
12764 6119 lt
12897 5965 lt
13030 5312 lt
13163 6667 lt
13296 4450 lt
13429 4701 lt
13562 5294 lt
13695 6775 lt
13828 5838 lt
13961 6043 lt
14094 5672 lt
EndPath
5 SetColor
/Ltp { Linetype5 } def /Lwd { Linewidth5 } def Slt
5 SetColor
/Ltp { Linetype5 } def /Lwd { Linewidth5 } def Slt
BgnPath
932 7545 mt
1065 6701 lt
1198 7273 lt
1331 6997 lt
1464 8040 lt
1597 6910 lt
1730 7621 lt
1863 7663 lt
1996 6904 lt
2129 7527 lt
2262 6893 lt
2395 6515 lt
2528 6916 lt
2661 6733 lt
2794 6244 lt
2927 6082 lt
3059 6680 lt
3192 5286 lt
3325 6824 lt
3458 6102 lt
3591 5619 lt
3724 5902 lt
3857 5606 lt
3990 6234 lt
4123 5247 lt
4256 5523 lt
4389 4574 lt
4522 5422 lt
4655 5379 lt
4788 5412 lt
4921 5287 lt
5054 6578 lt
5187 6697 lt
5319 6471 lt
5452 7561 lt
5585 6405 lt
5718 7348 lt
5851 6654 lt
5984 6612 lt
6117 8218 lt
6250 8543 lt
6383 8237 lt
6516 9276 lt
6649 8716 lt
6782 7900 lt
6915 7648 lt
7048 7605 lt
7181 7584 lt
7314 6408 lt
7447 7335 lt
7579 6563 lt
7712 6827 lt
7845 5597 lt
7978 5461 lt
8111 5519 lt
8244 5540 lt
8377 4167 lt
8510 5254 lt
8643 3656 lt
8776 3084 lt
8909 1866 lt
9042 1488 lt
9175 3698 lt
9308 3713 lt
9441 4446 lt
9574 5105 lt
9707 3712 lt
9839 3933 lt
9972 4082 lt
10105 4066 lt
10238 3473 lt
10371 3661 lt
10504 3456 lt
10637 2200 lt
10770 2782 lt
10903 3589 lt
11036 3878 lt
11169 3096 lt
11302 3898 lt
11435 3366 lt
11568 3542 lt
11701 3148 lt
11834 2994 lt
11967 4222 lt
12099 2207 lt
12232 1530 lt
12365 646 lt
12498 2429 lt
12631 2454 lt
12764 2403 lt
12897 2443 lt
13030 1555 lt
13163 2438 lt
13296 1555 lt
13429 1978 lt
13562 3349 lt
13695 3193 lt
13828 2236 lt
13961 2492 lt
14094 1475 lt
EndPath
1071 8886 Mto
tb0
1071 8886 Mto
2 SetColor
/Ltp { Linetype2 } def /Lwd { Linewidth2 } def Slt
100 100 Rt
600 0 Rlt
100 -100 Rt
1 SetColor
(h1 )T
tb1
1871 8586 Mto
1071 8586 Mto
4 SetColor
/Ltp { Linetype4 } def /Lwd { Linewidth4 } def Slt
100 100 Rt
600 0 Rlt
100 -100 Rt
1 SetColor
(o1 )T
tb1
1871 8286 Mto
tb2
1071 8886 Mto
tb3
3 SetColor
/Ltp { Linetype3 } def /Lwd { Linewidth3 } def Slt
100 100 Rt
600 0 Rlt
100 -100 Rt
1 SetColor
(h2 )T
tb1
1871 8586 Mto
1071 8586 Mto
tb3
5 SetColor
/Ltp { Linetype5 } def /Lwd { Linewidth5 } def Slt
100 100 Rt
600 0 Rlt
100 -100 Rt
1 SetColor
(o2 )T
tb1
1871 8286 Mto
tb2
1 SetColor
/Ltp { Linetype1 } def /Lwd { Linewidth1 } def Slt
1071 8586 Mto
tb3
0 -100 Rt
1071 9186 Boxto
%Graph end

restore
showpage
%%EOF
