
Ox Console version 7.00 (Linux) (C) J.A. Doornik, 1994-2013
This version may be used for academic research and teaching only
MODESSTH_DAILYTOPIXSV_Nx50Ntheta1000Sim0T485W248Dep1
SV with leverage
emp
0 th observation is being processed

      -5.8041     -0.24833      -5.6187    -0.046065
ess_rate:0.133508
PMCMC
0
a-rate:
      0.26900
1 th observation is being processed

      -5.7152     -0.22806      -5.6373    -0.017352
ess_rate:0.619788
PMCMC
0
a-rate:
      0.27800
2 th observation is being processed

      -7.5026     -0.30471      -6.9949    -0.051034
ess_rate:0.834749
3 th observation is being processed

      -8.1246     -0.40471      -7.4530    -0.050805
ess_rate:0.621517
PMCMC
0
a-rate:
      0.30500
4 th observation is being processed

      -8.5105     -0.42709      -7.0902    -0.023972
ess_rate:0.870815
5 th observation is being processed

      -8.8290     -0.38422      -7.0284    -0.036612
ess_rate:0.791529
6 th observation is being processed

      -8.9083     -0.42213      -7.2106    -0.065232
ess_rate:0.744408
7 th observation is being processed

      -8.9233     -0.42958      -7.3661    -0.098661
ess_rate:0.735452
8 th observation is being processed

      -8.8615     -0.50115      -7.4770     -0.13872
ess_rate:0.662275
PMCMC
0
a-rate:
      0.30600
9 th observation is being processed

      -8.9333     -0.31901      -7.8043     -0.17534
ess_rate:0.954498
10 th observation is being processed

      -9.0379     -0.29404      -7.7722     -0.19140
ess_rate:0.902947
11 th observation is being processed

      -9.0854     -0.28790      -7.8414     -0.19756
ess_rate:0.872534
12 th observation is being processed

      -8.8732     -0.41364      -7.9881     -0.21324
ess_rate:0.844303
13 th observation is being processed

      -8.9635     -0.39591      -7.8463     -0.24208
ess_rate:0.771612
14 th observation is being processed

      -9.0549     -0.33531      -7.6969     -0.22357
ess_rate:0.734352
15 th observation is being processed

      -9.0076     -0.39696      -7.8698     -0.23418
ess_rate:0.590979
PMCMC
0
a-rate:
      0.29300
16 th observation is being processed

      -9.0630     -0.28090      -8.2167     -0.17230
ess_rate:0.968751
17 th observation is being processed

      -9.1216     -0.24397      -8.2127     -0.15436
ess_rate:0.912064
18 th observation is being processed

      -9.1685     -0.21166      -8.2212     -0.12952
ess_rate:0.799991
19 th observation is being processed

      -9.2372     -0.15129      -8.1508    -0.076837
ess_rate:0.672855
PMCMC
0
a-rate:
      0.27300
20 th observation is being processed

      -9.2979    -0.086990      -8.2206    -0.063861
ess_rate:0.98111
21 th observation is being processed

      -9.3342    -0.056054      -8.2551    -0.045883
ess_rate:0.915604
22 th observation is being processed

      -9.4003     0.039064      -8.0389    -0.027505
ess_rate:0.939014
23 th observation is being processed

      -9.3378    -0.070955      -8.3531    -0.064686
ess_rate:0.889457
24 th observation is being processed

      -9.3828    -0.022781      -8.2795    -0.054174
ess_rate:0.884616
25 th observation is being processed

      -9.3338    -0.099835      -8.4788    -0.089790
ess_rate:0.843196
26 th observation is being processed

      -9.3775    -0.050408      -8.3921    -0.090752
ess_rate:0.813962
27 th observation is being processed

      -9.3929    -0.037131      -8.4281    -0.076020
ess_rate:0.757866
28 th observation is being processed

      -9.4352    0.0026672      -8.3888    -0.029148
ess_rate:0.718725
29 th observation is being processed

      -9.4534     0.011806      -8.4177    -0.026655
ess_rate:0.740975
30 th observation is being processed

      -9.2887     -0.10883      -8.4914     -0.10231
ess_rate:0.70567
31 th observation is being processed

      -9.3196    -0.069681      -8.4273     -0.12974
ess_rate:0.702269
32 th observation is being processed

      -9.2885     -0.10654      -8.5019     -0.15424
ess_rate:0.694865
PMCMC
0
a-rate:
      0.26000
33 th observation is being processed

      -9.2686    -0.089324      -8.4325     -0.15082
ess_rate:0.978115
34 th observation is being processed

      -9.2990    -0.051666      -8.4042     -0.17002
ess_rate:0.964687
35 th observation is being processed

      -9.2844    -0.084838      -8.4663     -0.16010
ess_rate:0.934361
36 th observation is being processed

      -9.3085    -0.057175      -8.4558     -0.17101
ess_rate:0.899207
37 th observation is being processed

      -9.3269    -0.030296      -8.4589     -0.18131
ess_rate:0.835114
38 th observation is being processed

      -9.3587     0.016232      -8.3737     -0.19262
ess_rate:0.763677
39 th observation is being processed

      -9.3867     0.051886      -8.3141     -0.18715
ess_rate:0.676142
PMCMC
0
a-rate:
      0.23900
40 th observation is being processed

      -9.4101      0.10321      -8.0099     -0.20690
ess_rate:0.986425
41 th observation is being processed

      -9.4304      0.10957      -8.0547     -0.19876
ess_rate:0.973237
42 th observation is being processed

      -9.4356      0.10405      -8.1002     -0.20466
ess_rate:0.946169
43 th observation is being processed

      -9.4516      0.11814      -8.1272     -0.20484
ess_rate:0.920428
44 th observation is being processed

      -9.4647      0.12433      -8.1687     -0.20724
ess_rate:0.886312
45 th observation is being processed

      -9.4812      0.12969      -8.2134     -0.19478
ess_rate:0.889535
46 th observation is being processed

      -9.4143     0.075921      -8.0569     -0.23478
ess_rate:0.82064
47 th observation is being processed

      -9.3719     0.069862      -7.9888     -0.18838
ess_rate:0.820623
48 th observation is being processed

      -9.3906     0.093285      -7.9852     -0.24303
ess_rate:0.804494
49 th observation is being processed

      -9.4156      0.10566      -7.9941     -0.22273
ess_rate:0.795156
50 th observation is being processed

      -9.3848      0.10617      -8.0730     -0.24785
ess_rate:0.782957
51 th observation is being processed

      -9.3888      0.11134      -8.0713     -0.26403
ess_rate:0.760673
52 th observation is being processed

      -9.4080      0.13048      -8.0379     -0.30048
ess_rate:0.741751
53 th observation is being processed

      -9.4306      0.15886      -7.9817     -0.31607
ess_rate:0.729834
54 th observation is being processed

      -9.4149      0.12919      -8.0898     -0.30156
ess_rate:0.721226
55 th observation is being processed

      -9.4341      0.12858      -8.2006     -0.29340
ess_rate:0.72424
56 th observation is being processed

      -9.4198      0.11862      -8.2389     -0.29817
ess_rate:0.712232
57 th observation is being processed

      -9.4419      0.11069      -8.3213     -0.27239
ess_rate:0.555418
58 th observation is being processed

      -9.3326     0.054597      -7.5700     -0.21952
ess_rate:0.55398
59 th observation is being processed

      -9.3327     0.064270      -7.6311     -0.23831
ess_rate:0.552457
60 th observation is being processed

      -9.3392     0.062016      -7.6880     -0.24866
ess_rate:0.561967
61 th observation is being processed

      -9.3553     0.034669      -7.7871     -0.20631
ess_rate:0.559505
62 th observation is being processed

      -9.3729     0.035287      -7.8316     -0.21586
ess_rate:0.540213
63 th observation is being processed

      -9.3828     0.034066      -7.8511     -0.24230
ess_rate:0.494894
64 th observation is being processed

      -9.3284     0.078342      -7.6839     -0.33739
ess_rate:0.511202
65 th observation is being processed

      -9.3450     0.045256      -7.7814     -0.28009
ess_rate:0.493262
66 th observation is being processed

      -9.3488     0.043236      -7.8489     -0.29799
ess_rate:0.489967
67 th observation is being processed

      -9.3231     0.092424      -7.8144     -0.35695
ess_rate:0.519296
68 th observation is being processed

      -9.3400     0.059280      -7.9604     -0.29298
ess_rate:0.509065
69 th observation is being processed

      -9.3404     0.058985      -7.9811     -0.28970
ess_rate:0.521586
70 th observation is being processed

      -9.3516     0.048714      -8.0865     -0.25971
ess_rate:0.522724
71 th observation is being processed

      -9.3588     0.061136      -8.1294     -0.28246
ess_rate:0.466592
72 th observation is being processed

      -9.3389     0.067212      -8.1365     -0.27972
ess_rate:0.463488
73 th observation is being processed

      -9.3535     0.054067      -8.1699     -0.27282
ess_rate:0.417269
74 th observation is being processed

      -9.3040     0.052893      -7.7790     -0.28837
ess_rate:0.422516
75 th observation is being processed

      -9.3114     0.066878      -7.7950     -0.32091
ess_rate:0.418412
76 th observation is being processed

      -9.3231     0.063092      -7.8372     -0.31114
ess_rate:0.418331
77 th observation is being processed

      -9.3356     0.059848      -7.8846     -0.31769
ess_rate:0.398653
PMCMC
0
a-rate:
      0.23500
78 th observation is being processed

      -9.3497     0.062919      -7.9349     -0.28841
ess_rate:0.991908
79 th observation is being processed

      -9.3554     0.067143      -7.9959     -0.28509
ess_rate:0.976931
80 th observation is being processed

      -9.3679     0.070562      -8.0496     -0.29933
ess_rate:0.963388
81 th observation is being processed

      -9.3715     0.070590      -8.0646     -0.30111
ess_rate:0.910834
82 th observation is being processed

      -9.3362     0.065441      -7.8619     -0.33228
ess_rate:0.914434
83 th observation is being processed

      -9.3467     0.037466      -7.9656     -0.29326
ess_rate:0.566889
84 th observation is being processed

      -9.2740    -0.024367      -6.8319     -0.17495
ess_rate:0.576444
85 th observation is being processed

      -9.2788    -0.058018      -6.9502     -0.10794
ess_rate:0.529661
86 th observation is being processed

      -9.2678    -0.053716      -6.7714     -0.12489
ess_rate:0.440505
87 th observation is being processed

      -9.2855     -0.18139      -6.5891    -0.033813
ess_rate:0.474582
88 th observation is being processed

      -9.2843     -0.14144      -6.7487    -0.048165
ess_rate:0.369405
PMCMC
0
a-rate:
      0.17800
89 th observation is being processed

      -9.3006     -0.21949      -6.4381     0.059925
ess_rate:0.982231
90 th observation is being processed

      -9.2951     -0.20219      -6.4230     0.042457
ess_rate:0.940188
91 th observation is being processed

      -9.2810    -0.076561      -6.7254    -0.017973
ess_rate:0.913252
92 th observation is being processed

      -9.2777    -0.053863      -6.8007    -0.043331
ess_rate:0.518432
93 th observation is being processed

      -9.2242    -0.077930      -5.3483      0.17476
ess_rate:0.488413
94 th observation is being processed

      -9.2523     -0.30335      -4.8146      0.36264
ess_rate:0.505886
95 th observation is being processed

      -9.2477     -0.27550      -4.8831      0.35762
ess_rate:0.458059
96 th observation is being processed

      -9.2235     -0.14571      -5.0468      0.36680
ess_rate:0.418346
97 th observation is being processed

      -9.2386     -0.24192      -4.7111      0.47074
ess_rate:0.426772
98 th observation is being processed

      -9.2434     -0.24577      -4.8118      0.47242
ess_rate:0.422576
99 th observation is being processed

      -9.2552     -0.29768      -4.6911      0.49484
ess_rate:0.422525
100 th observation is being processed

      -9.2552     -0.28661      -4.7766      0.48487
ess_rate:0.433834
101 th observation is being processed

      -9.2618     -0.29351      -4.8421      0.48750
ess_rate:0.424348
102 th observation is being processed

      -9.2659     -0.30773      -4.7879      0.49606
ess_rate:0.422274
103 th observation is being processed

      -9.2516     -0.26104      -5.0367      0.46343
ess_rate:0.459903
104 th observation is being processed

      -9.2234    -0.076658      -5.7825      0.23198
ess_rate:0.369655
PMCMC
0
a-rate:
      0.16500
105 th observation is being processed

      -9.1937      0.16681      -6.1639    -0.088967
ess_rate:0.973749
106 th observation is being processed

      -9.1860      0.16058      -6.1108    -0.073543
ess_rate:0.913121
107 th observation is being processed

      -9.1703      0.16528      -6.1839    -0.027003
ess_rate:0.815615
108 th observation is being processed

      -9.1525      0.14206      -6.2080     0.084515
ess_rate:0.722385
109 th observation is being processed

      -9.1308      0.26944      -6.5684    -0.043506
ess_rate:0.711712
110 th observation is being processed

      -9.1341      0.26588      -6.6230    -0.041406
ess_rate:0.723424
111 th observation is being processed

      -9.1446      0.22925      -6.5701    0.0032857
ess_rate:0.759165
112 th observation is being processed

      -9.1533      0.21292      -6.5913  -0.00021721
ess_rate:0.764733
113 th observation is being processed

      -9.1625      0.18591      -6.5297     0.021295
ess_rate:0.708158
114 th observation is being processed

      -9.1477      0.18551      -6.5867     0.035297
ess_rate:0.732871
115 th observation is being processed

      -9.1531      0.17973      -6.5887     0.014732
ess_rate:0.683246
116 th observation is being processed

      -9.1354      0.18640      -6.7783    -0.026827
ess_rate:0.682578
117 th observation is being processed

      -9.1356      0.19358      -6.8160    -0.060479
ess_rate:0.691179
118 th observation is being processed

      -9.1417      0.19977      -6.7549    -0.072609
ess_rate:0.708317
119 th observation is being processed

      -9.1453      0.19918      -6.7402    -0.080766
ess_rate:0.709703
120 th observation is being processed

      -9.1471      0.19156      -6.7252    -0.093296
ess_rate:0.70412
121 th observation is being processed

      -9.1492      0.17069      -6.7463    -0.082504
ess_rate:0.617841
122 th observation is being processed

      -9.1338      0.20663      -6.6529    -0.067513
ess_rate:0.577587
123 th observation is being processed

      -9.1273      0.20518      -6.7315   0.00030113
ess_rate:0.567809
124 th observation is being processed

      -9.1358      0.23231      -6.6840    -0.012035
ess_rate:0.535444
125 th observation is being processed

      -9.1372      0.23085      -6.6833     0.022447
ess_rate:0.536056
126 th observation is being processed

      -9.1450      0.25235      -6.6518     0.014963
ess_rate:0.534994
127 th observation is being processed

      -9.1517      0.27443      -6.5616   -0.0032581
ess_rate:0.533964
128 th observation is being processed

      -9.1562      0.28054      -6.5254  -0.00019048
ess_rate:0.451128
129 th observation is being processed

      -9.1563      0.28389      -6.5474     0.042550
ess_rate:0.42253
130 th observation is being processed

      -9.1614      0.28032      -6.5431     0.061965
ess_rate:0.494079
131 th observation is being processed

      -9.1682      0.25116      -6.5185     0.060328
ess_rate:0.323475
PMCMC
0
a-rate:
      0.13800
132 th observation is being processed

      -9.1704      0.40561      -6.5283     0.091239
ess_rate:0.985954
133 th observation is being processed

      -9.1799      0.37285      -6.4829      0.16151
ess_rate:0.96756
134 th observation is being processed

      -9.1864      0.35899      -6.5019      0.17962
ess_rate:0.942058
135 th observation is being processed

      -9.1932      0.33515      -6.4966      0.20618
ess_rate:0.927044
136 th observation is being processed

      -9.1944      0.33214      -6.5488      0.21068
ess_rate:0.881445
137 th observation is being processed

      -9.1804      0.33879      -6.5116      0.24254
ess_rate:0.874387
138 th observation is being processed

      -9.1620      0.43493      -6.6834     0.063768
ess_rate:0.860235
139 th observation is being processed

      -9.1697      0.38320      -6.7191      0.13027
ess_rate:0.849294
140 th observation is being processed

      -9.1596      0.41679      -6.7128     0.012994
ess_rate:0.82438
141 th observation is being processed

      -9.1573      0.42880      -6.7490    0.0030228
ess_rate:0.771899
142 th observation is being processed

      -9.1477      0.45219      -6.6679    0.0055849
ess_rate:0.72198
143 th observation is being processed

      -9.1533      0.44451      -6.6713     0.020528
ess_rate:0.709809
144 th observation is being processed

      -9.1591      0.42972      -6.6745     0.012750
ess_rate:0.675314
145 th observation is being processed

      -9.1606      0.42786      -6.6737     0.037617
ess_rate:0.669886
146 th observation is being processed

      -9.1674      0.40869      -6.6555     0.058784
ess_rate:0.711895
147 th observation is being processed

      -9.1636      0.38682      -6.7036     0.031457
ess_rate:0.591158
148 th observation is being processed

      -9.1535      0.41953      -6.7440     0.057949
ess_rate:0.590252
149 th observation is being processed

      -9.1508      0.40661      -6.7782     0.061928
ess_rate:0.538492
150 th observation is being processed

      -9.1593      0.42396      -6.6928     0.069559
ess_rate:0.551835
151 th observation is being processed

      -9.1613      0.42111      -6.6912     0.065254
ess_rate:0.583347
152 th observation is being processed

      -9.1657      0.42975      -6.6546     0.016170
ess_rate:0.532842
153 th observation is being processed

      -9.1737      0.44004      -6.5681     0.027011
ess_rate:0.497925
154 th observation is being processed

      -9.1805      0.46248      -6.4964     0.016922
ess_rate:0.395311
PMCMC
0
a-rate:
      0.13700
155 th observation is being processed

      -9.1885      0.45196      -6.3220     0.057591
ess_rate:0.956833
156 th observation is being processed

      -9.1802      0.43579      -6.4193     0.064166
ess_rate:0.947665
157 th observation is being processed

      -9.1825      0.45053      -6.4018     0.064567
ess_rate:0.933328
158 th observation is being processed

      -9.1891      0.49897      -6.2724     0.010672
ess_rate:0.912343
159 th observation is being processed

      -9.1955      0.53482      -6.1611    -0.030818
ess_rate:0.887352
160 th observation is being processed

      -9.2011      0.57742      -6.0692    -0.083248
ess_rate:0.849462
161 th observation is being processed

      -9.2066      0.61489      -5.9780     -0.13035
ess_rate:0.825066
162 th observation is being processed

      -9.2068      0.61850      -5.9802     -0.10994
ess_rate:0.785216
163 th observation is being processed

      -9.2118      0.63312      -5.9248     -0.10523
ess_rate:0.783749
164 th observation is being processed

      -9.2094      0.61738      -5.9580    -0.097242
ess_rate:0.76475
165 th observation is being processed

      -9.2126      0.58866      -5.9835    -0.077853
ess_rate:0.751002
166 th observation is being processed

      -9.2144      0.59117      -6.0018    -0.079738
ess_rate:0.736575
167 th observation is being processed

      -9.2047      0.59999      -6.0544     -0.10934
ess_rate:0.716991
168 th observation is being processed

      -9.2099      0.56303      -6.1423    -0.019254
ess_rate:0.688241
169 th observation is being processed

      -9.2151      0.54272      -6.2201     0.016737
ess_rate:0.68459
170 th observation is being processed

      -9.2127      0.53448      -6.2213     0.029036
ess_rate:0.6897
171 th observation is being processed

      -9.2172      0.49247      -6.2910     0.069945
ess_rate:0.61623
172 th observation is being processed

      -9.2011      0.56399      -5.9639    -0.023667
ess_rate:0.578756
173 th observation is being processed

      -9.2077      0.58083      -5.9465    -0.043344
ess_rate:0.580313
174 th observation is being processed

      -9.2106      0.57265      -5.9324    -0.055928
ess_rate:0.543854
175 th observation is being processed

      -9.2072      0.58320      -5.9980    -0.013520
ess_rate:0.527527
176 th observation is being processed

      -9.2124      0.60905      -5.9513    -0.068660
ess_rate:0.552948
177 th observation is being processed

      -9.1998      0.57330      -6.1326    -0.068806
ess_rate:0.530689
178 th observation is being processed

      -9.2056      0.62022      -6.0173     -0.14398
ess_rate:0.503963
179 th observation is being processed

      -9.2070      0.63235      -6.0004     -0.14650
ess_rate:0.51997
180 th observation is being processed

      -9.1998      0.54574      -6.2436    -0.055769
ess_rate:0.507612
181 th observation is being processed

      -9.2041      0.53994      -6.2002    -0.058859
ess_rate:0.488006
182 th observation is being processed

      -9.2084      0.54840      -6.1986    -0.050585
ess_rate:0.485328
183 th observation is being processed

      -9.2115      0.52919      -6.2037    -0.063061
ess_rate:0.468769
184 th observation is being processed

      -9.1951      0.44757      -6.3447     0.088477
ess_rate:0.435461
185 th observation is being processed

      -9.1999      0.41401      -6.3402      0.16219
ess_rate:0.4149
186 th observation is being processed

      -9.1990      0.43466      -6.3097     0.097481
ess_rate:0.394436
PMCMC
0
a-rate:
      0.12900
187 th observation is being processed

      -9.2071      0.47392      -6.2533     0.038688
ess_rate:0.986641
188 th observation is being processed

      -9.2116      0.45546      -6.2981     0.082910
ess_rate:0.971845
189 th observation is being processed

      -9.2151      0.42719      -6.3230     0.099423
ess_rate:0.950475
190 th observation is being processed

      -9.2145      0.43426      -6.3368      0.10057
ess_rate:0.933975
191 th observation is being processed

      -9.2190      0.42576      -6.3666      0.10855
ess_rate:0.90378
192 th observation is being processed

      -9.2154      0.41349      -6.4071      0.16019
ess_rate:0.832732
193 th observation is being processed

      -9.2108      0.45653      -6.4147      0.14130
ess_rate:0.762062
194 th observation is being processed

      -9.2149      0.42915      -6.4509      0.21546
ess_rate:0.734713
195 th observation is being processed

      -9.2178      0.41292      -6.4810      0.25642
ess_rate:0.658689
196 th observation is being processed

      -9.2200      0.40180      -6.5115      0.26316
ess_rate:0.683135
197 th observation is being processed

      -9.2168      0.40295      -6.5337      0.27403
ess_rate:0.672188
198 th observation is being processed

      -9.2164      0.39958      -6.5363      0.27069
ess_rate:0.495945
199 th observation is being processed

      -9.2080      0.36509      -6.6386      0.41035
ess_rate:0.421186
200 th observation is being processed

      -9.2126      0.40888      -6.5595      0.39371
ess_rate:0.324395
PMCMC
0
a-rate:
     0.096000
201 th observation is being processed

      -9.2136      0.53223      -6.5017      0.31504
ess_rate:0.986382
202 th observation is being processed

      -9.2166      0.55065      -6.4568      0.28850
ess_rate:0.969674
203 th observation is being processed

      -9.2176      0.55675      -6.4305      0.28559
ess_rate:0.944812
204 th observation is being processed

      -9.2164      0.55273      -6.4368      0.28882
ess_rate:0.903912
205 th observation is being processed

      -9.2132      0.53895      -6.4711      0.33096
ess_rate:0.897945
206 th observation is being processed

      -9.2174      0.53183      -6.4432      0.33387
ess_rate:0.882625
207 th observation is being processed

      -9.2173      0.53797      -6.4531      0.34365
ess_rate:0.840993
208 th observation is being processed

      -9.2160      0.57235      -6.4251      0.32589
ess_rate:0.787638
209 th observation is being processed

      -9.2202      0.59227      -6.4106      0.31707
ess_rate:0.76204
210 th observation is being processed

      -9.2179      0.59197      -6.3998      0.29975
ess_rate:0.675446
211 th observation is being processed

      -9.2209      0.63118      -6.3395      0.26135
ess_rate:0.711953
212 th observation is being processed

      -9.2239      0.61611      -6.3229      0.23008
ess_rate:0.728676
213 th observation is being processed

      -9.2275      0.61180      -6.3203      0.21044
ess_rate:0.649522
214 th observation is being processed

      -9.2243      0.62136      -6.2865      0.22580
ess_rate:0.638945
215 th observation is being processed

      -9.2267      0.61212      -6.2940      0.24817
ess_rate:0.591101
216 th observation is being processed

      -9.2259      0.60953      -6.2950      0.24267
ess_rate:0.516323
217 th observation is being processed

      -9.2293      0.58751      -6.3363      0.32647
ess_rate:0.478618
218 th observation is being processed

      -9.2330      0.57168      -6.4012      0.38622
ess_rate:0.270062
PMCMC
0
a-rate:
     0.068000
219 th observation is being processed

      -9.2246      0.69010      -5.9876    0.0064998
ess_rate:0.88308
220 th observation is being processed

      -9.2133      0.65452      -6.0040      0.13619
ess_rate:0.821972
221 th observation is being processed

      -9.2090      0.62311      -6.0722      0.23470
ess_rate:0.799706
222 th observation is being processed

      -9.2123      0.67320      -5.9961      0.11607
ess_rate:0.764986
223 th observation is being processed

      -9.2141      0.70068      -5.9748      0.10433
ess_rate:0.725662
224 th observation is being processed

      -9.2135      0.66957      -6.0269      0.19939
ess_rate:0.728413
225 th observation is being processed

      -9.2156      0.72152      -5.9674     0.098837
ess_rate:0.70704
226 th observation is being processed

      -9.2178      0.78565      -5.8322    -0.036181
ess_rate:0.689187
227 th observation is being processed

      -9.2171      0.68990      -6.0355     0.080266
ess_rate:0.702424
228 th observation is being processed

      -9.2172      0.68171      -6.0842     0.081326
ess_rate:0.67294
229 th observation is being processed

      -9.2194      0.73230      -6.0522   -0.0038675
ess_rate:0.65175
230 th observation is being processed

      -9.2220      0.77912      -5.9451     -0.12160
ess_rate:0.628097
231 th observation is being processed

      -9.2239      0.82926      -5.8674     -0.20928
ess_rate:0.598886
232 th observation is being processed

      -9.2256      0.89039      -5.7646     -0.33727
ess_rate:0.594729
233 th observation is being processed

      -9.2261      0.88361      -5.7587     -0.34204
ess_rate:0.559162
234 th observation is being processed

      -9.2274      0.95095      -5.6432     -0.51655
ess_rate:0.531347
235 th observation is being processed

      -9.2286       1.0123      -5.5261     -0.60963
ess_rate:0.482861
236 th observation is being processed

      -9.2298       1.0676      -5.4342     -0.69784
ess_rate:0.452763
237 th observation is being processed

      -9.2305       1.0911      -5.4064     -0.73950
ess_rate:0.495789
238 th observation is being processed

      -9.2315       1.0368      -5.5073     -0.65581
ess_rate:0.424846
239 th observation is being processed

      -9.2321       1.1486      -5.3179     -0.84379
ess_rate:0.397287
PMCMC
0
a-rate:
     0.058000
240 th observation is being processed

      -9.2325       1.1600      -5.4755     -0.79096
ess_rate:0.952198
241 th observation is being processed

      -9.2343       1.1057      -5.5937     -0.67573
ess_rate:0.428648
242 th observation is being processed

      -9.2247      0.38798      -6.6218      0.40446
ess_rate:0.41963
243 th observation is being processed

      -9.2272      0.46208      -6.5238      0.25916
ess_rate:0.40094
244 th observation is being processed

      -9.2286      0.48338      -6.4706      0.20719
ess_rate:0.377774
PMCMC
0
a-rate:
     0.079000
245 th observation is being processed

      -9.2280      0.64706      -6.5112      0.13824
ess_rate:0.962426
246 th observation is being processed

      -9.2277      0.56754      -6.6407      0.27271
ess_rate:0.955228
247 th observation is being processed

      -9.2283      0.57664      -6.6007      0.21349
ess_rate:0.939452
248 th observation is being processed

      -9.2296      0.61602      -6.5325      0.16702
ess_rate:0.366439
PMCMC
0
a-rate:
      0.13100
249 th observation is being processed

      -9.2133    -0.091806      -6.8495      0.61052
ess_rate:0.987465
250 th observation is being processed

      -9.2139    -0.070150      -6.7663      0.59540
ess_rate:0.959985
251 th observation is being processed

      -9.2124    -0.059580      -6.7134      0.61733
ess_rate:0.939152
252 th observation is being processed

      -9.2093    -0.055558      -6.7813      0.58137
ess_rate:0.925274
253 th observation is being processed

      -9.2046    -0.078176      -6.8321      0.59850
ess_rate:0.912873
254 th observation is being processed

      -9.2024    -0.078673      -6.8669      0.60234
ess_rate:0.89678
255 th observation is being processed

      -9.2034     -0.10110      -6.8088      0.61378
ess_rate:0.811413
256 th observation is being processed

      -9.1983     -0.13788      -6.9145      0.66780
ess_rate:0.819558
257 th observation is being processed

      -9.2034     -0.16904      -6.7091      0.67648
ess_rate:0.622945
258 th observation is being processed

      -9.1962     -0.16973      -6.3200      0.75261
ess_rate:0.636466
259 th observation is being processed

      -9.1964     -0.18384      -6.3331      0.71323
ess_rate:0.670046
260 th observation is being processed

      -9.2051     -0.15099      -6.2679      0.59817
ess_rate:0.66721
261 th observation is being processed

      -9.1966     -0.14365      -6.3666      0.61196
ess_rate:0.627132
262 th observation is being processed

      -9.1905     -0.13815      -6.5859      0.64188
ess_rate:0.516359
263 th observation is being processed

      -9.1904     -0.22436      -6.1303      0.70491
ess_rate:0.51774
264 th observation is being processed

      -9.1911     -0.23499      -6.1052      0.68011
ess_rate:0.539367
265 th observation is being processed

      -9.1906     -0.21758      -6.1749      0.66964
ess_rate:0.473407
266 th observation is being processed

      -9.1833     -0.23042      -6.1996      0.66247
ess_rate:0.484769
267 th observation is being processed

      -9.1816     -0.19697      -6.3563      0.63120
ess_rate:0.485569
268 th observation is being processed

      -9.1815     -0.20520      -6.3635      0.64318
ess_rate:0.47499
269 th observation is being processed

      -9.1761     -0.21662      -6.4459      0.64127
ess_rate:0.424634
270 th observation is being processed

      -9.1682     -0.24237      -6.4185      0.66941
ess_rate:0.245562
PMCMC
0
a-rate:
      0.14300
271 th observation is being processed

      -9.1350    -0.011505      -7.1315      0.53443
ess_rate:0.992576
272 th observation is being processed

      -9.1340    -0.019726      -7.2196      0.53850
ess_rate:0.967257
273 th observation is being processed

      -9.1336    -0.016213      -7.1606      0.54258
ess_rate:0.95474
274 th observation is being processed

      -9.1301    -0.025905      -7.1702      0.54297
ess_rate:0.935893
275 th observation is being processed

      -9.1290    -0.042691      -7.1953      0.55831
ess_rate:0.93479
276 th observation is being processed

      -9.1284    -0.022041      -7.1808      0.53888
ess_rate:0.913924
277 th observation is being processed

      -9.1243    -0.027145      -7.1700      0.52952
ess_rate:0.813776
278 th observation is being processed

      -9.1232    -0.027237      -7.2192      0.52990
ess_rate:0.815385
279 th observation is being processed

      -9.1233    0.0016631      -7.2816      0.52470
ess_rate:0.798317
280 th observation is being processed

      -9.1247    -0.043433      -7.2281      0.52473
ess_rate:0.779989
281 th observation is being processed

      -9.1249    -0.088173      -7.1966      0.56306
ess_rate:0.787603
282 th observation is being processed

      -9.1253    -0.090956      -7.1986      0.56513
ess_rate:0.739483
283 th observation is being processed

      -9.1229    -0.061441      -7.1576      0.55095
ess_rate:0.722301
284 th observation is being processed

      -9.1185    -0.042418      -7.1693      0.53906
ess_rate:0.677668
285 th observation is being processed

      -9.1143  -0.00039373      -7.2467      0.50533
ess_rate:0.610216
286 th observation is being processed

      -9.1012      0.10644      -7.3967      0.39483
ess_rate:0.594637
287 th observation is being processed

      -9.0984      0.12509      -7.4475      0.35586
ess_rate:0.601196
288 th observation is being processed

      -9.0969      0.16050      -7.5045      0.33063
ess_rate:0.595747
289 th observation is being processed

      -9.0966      0.20490      -7.5790      0.27877
ess_rate:0.573321
290 th observation is being processed

      -9.0926      0.22617      -7.6139      0.31354
ess_rate:0.56026
291 th observation is being processed

      -9.0920      0.27885      -7.6795      0.26681
ess_rate:0.491531
292 th observation is being processed

      -9.0866      0.32935      -7.7569      0.22978
ess_rate:0.433047
293 th observation is being processed

      -9.0802      0.36755      -7.7098      0.22083
ess_rate:0.411178
294 th observation is being processed

      -9.0876      0.30541      -7.5987      0.34516
ess_rate:0.433399
295 th observation is being processed

      -9.0924      0.27336      -7.6326      0.36910
ess_rate:0.462831
296 th observation is being processed

      -9.0917      0.25924      -7.6338      0.36293
ess_rate:0.403965
297 th observation is being processed

      -9.0878      0.24504      -7.6967      0.34735
ess_rate:0.375364
PMCMC
0
a-rate:
      0.15000
298 th observation is being processed

      -9.0762      0.24047      -7.6315      0.36950
ess_rate:0.965766
299 th observation is being processed

      -9.0698      0.30805      -7.7156      0.31686
ess_rate:0.93579
300 th observation is being processed

      -9.0652      0.33319      -7.7602      0.27988
ess_rate:0.880335
301 th observation is being processed

      -9.0566      0.39603      -7.8600      0.20652
ess_rate:0.871195
302 th observation is being processed

      -9.0574      0.39344      -7.7992      0.22572
ess_rate:0.869225
303 th observation is being processed

      -9.0572      0.42377      -7.8327      0.21085
ess_rate:0.878366
304 th observation is being processed

      -9.0602      0.38701      -7.7693      0.20162
ess_rate:0.859767
305 th observation is being processed

      -9.0570      0.44892      -7.8352      0.15709
ess_rate:0.848615
306 th observation is being processed

      -9.0687      0.52248      -7.7548      0.13471
ess_rate:0.632307
307 th observation is being processed

      -9.0448      0.60613      -7.8366   -0.0098910
ess_rate:0.621032
308 th observation is being processed

      -9.0446      0.59267      -7.7761    -0.011298
ess_rate:0.533981
309 th observation is being processed

      -9.0367      0.63505      -7.8173    -0.079404
ess_rate:0.448156
310 th observation is being processed

      -9.0208      0.63360      -7.7716     -0.18077
ess_rate:0.323184
PMCMC
0
a-rate:
      0.20400
311 th observation is being processed

      -9.0030      0.59268      -7.5766     -0.17213
ess_rate:0.638231
312 th observation is being processed

      -8.9902      0.57930      -7.2171     -0.16245
ess_rate:0.634845
313 th observation is being processed

      -8.9875      0.55634      -7.4801     -0.23046
ess_rate:0.618875
314 th observation is being processed

      -8.9811      0.54796      -7.4888     -0.22816
ess_rate:0.505346
315 th observation is being processed

      -8.9773      0.54769      -7.1923     -0.16692
ess_rate:0.582577
316 th observation is being processed

      -8.9735      0.51763      -7.3753     -0.19529
ess_rate:0.562092
317 th observation is being processed

      -8.9715      0.49998      -7.4971     -0.22492
ess_rate:0.551477
318 th observation is being processed

      -8.9676      0.48559      -7.6092     -0.23597
ess_rate:0.521632
319 th observation is being processed

      -8.9627      0.47381      -7.6706     -0.25670
ess_rate:0.522253
320 th observation is being processed

      -8.9639      0.51241      -7.5520     -0.24688
ess_rate:0.549018
321 th observation is being processed

      -8.9622      0.47855      -7.5631     -0.21989
ess_rate:0.45631
322 th observation is being processed

      -8.9659      0.50817      -7.6742     -0.27092
ess_rate:0.490577
323 th observation is being processed

      -8.9658      0.49447      -7.5894     -0.21543
ess_rate:0.425519
324 th observation is being processed

      -8.9592      0.47233      -7.7880     -0.25705
ess_rate:0.430552
325 th observation is being processed

      -8.9571      0.44763      -7.8066     -0.25793
ess_rate:0.428561
326 th observation is being processed

      -8.9559      0.43006      -7.8378     -0.26816
ess_rate:0.414182
327 th observation is being processed

      -8.9561      0.43253      -7.8762     -0.26439
ess_rate:0.398681
PMCMC
0
a-rate:
      0.19600
328 th observation is being processed

      -8.9501      0.31903      -7.7709     -0.21722
ess_rate:0.994586
329 th observation is being processed

      -8.9518      0.34187      -7.8327     -0.23212
ess_rate:0.86277
330 th observation is being processed

      -8.9439      0.34546      -7.7148     -0.22409
ess_rate:0.85097
331 th observation is being processed

      -8.9417      0.33497      -7.8330     -0.27041
ess_rate:0.39824
PMCMC
0
a-rate:
      0.14200
332 th observation is being processed

      -8.9543      0.31563      -9.0249     -0.71211
ess_rate:0.916339
333 th observation is being processed

      -8.9468      0.30942      -8.9139     -0.70995
ess_rate:0.883883
334 th observation is being processed

      -8.9464      0.31643      -8.8579     -0.67769
ess_rate:0.885921
335 th observation is being processed

      -8.9435      0.29422      -8.8832     -0.67361
ess_rate:0.843063
336 th observation is being processed

      -8.9399      0.29396      -8.7602     -0.60388
ess_rate:0.833223
337 th observation is being processed

      -8.9373      0.27562      -8.7560     -0.58927
ess_rate:0.830955
338 th observation is being processed

      -8.9385      0.29199      -8.6950     -0.57850
ess_rate:0.823029
339 th observation is being processed

      -8.9382      0.29364      -8.7585     -0.60309
ess_rate:0.819825
340 th observation is being processed

      -8.9396      0.31297      -8.7455     -0.56957
ess_rate:0.733002
341 th observation is being processed

      -8.9548      0.41299      -8.7402     -0.48548
ess_rate:0.0089096
PMCMC
0
a-rate:
     0.064000
342 th observation is being processed

      -9.1160       3.0316      -1.7066      0.20717
ess_rate:0.962205
343 th observation is being processed

      -9.0969       2.7862      -1.6449      0.21196
ess_rate:0.886072
344 th observation is being processed

      -9.1500       3.3998      -1.8079      0.19177
ess_rate:0.890867
345 th observation is being processed

      -9.1496       3.4090      -1.8163      0.18358
ess_rate:0.896199
346 th observation is being processed

      -9.1456       3.3729      -1.8156      0.17699
ess_rate:0.592449
347 th observation is being processed

      -9.1983       3.9557      -2.0204      0.11673
ess_rate:0.641377
348 th observation is being processed

      -9.1904       3.8705      -1.9904      0.12901
ess_rate:0.492894
349 th observation is being processed

      -9.2095       4.0937      -2.0791     0.090849
ess_rate:0.448415
350 th observation is being processed

      -9.2145       4.1584      -2.1072     0.076495
ess_rate:0.418786
351 th observation is being processed

      -9.2134       4.1648      -2.1032     0.075759
ess_rate:0.455067
352 th observation is being processed

      -9.2082       4.1027      -2.0656     0.097758
ess_rate:0.481023
353 th observation is being processed

      -9.2055       4.0710      -2.0478      0.11533
ess_rate:0.288254
PMCMC
0
a-rate:
     0.044000
354 th observation is being processed

      -9.2000       4.1828      -2.0936     0.068760
ess_rate:0.991486
355 th observation is being processed

      -9.2017       4.1925      -2.1019     0.073838
ess_rate:0.966336
356 th observation is being processed

      -9.2033       4.1965      -2.1075     0.078263
ess_rate:0.930975
357 th observation is being processed

      -9.1969       4.2160      -2.1045     0.060106
ess_rate:0.950433
358 th observation is being processed

      -9.1995       4.2152      -2.1072     0.063078
ess_rate:0.9363
359 th observation is being processed

      -9.1976       4.2168      -2.1063     0.056000
ess_rate:0.954768
360 th observation is being processed

      -9.1976       4.2094      -2.1048     0.056270
ess_rate:0.950584
361 th observation is being processed

      -9.1960       4.2090      -2.1042     0.054799
ess_rate:0.955957
362 th observation is being processed

      -9.1974       4.2090      -2.1071     0.055516
ess_rate:0.958909
363 th observation is being processed

      -9.1936       4.1932      -2.0978     0.054680
ess_rate:0.958614
364 th observation is being processed

      -9.1968       4.1900      -2.0996     0.055521
ess_rate:0.951804
365 th observation is being processed

      -9.1935       4.1776      -2.0916     0.054634
ess_rate:0.930723
366 th observation is being processed

      -9.1850       4.1493      -2.0723     0.054363
ess_rate:0.928375
367 th observation is being processed

      -9.1853       4.1876      -2.0919     0.045913
ess_rate:0.896222
368 th observation is being processed

      -9.1851       4.2050      -2.0973     0.044861
ess_rate:0.890003
369 th observation is being processed

      -9.1825       4.2001      -2.0941     0.041861
ess_rate:0.899563
370 th observation is being processed

      -9.1886       4.2092      -2.1020     0.048092
ess_rate:0.898447
371 th observation is being processed

      -9.1864       4.1995      -2.0983     0.041496
ess_rate:0.880446
372 th observation is being processed

      -9.1796       4.1812      -2.0865     0.036310
ess_rate:0.890512
373 th observation is being processed

      -9.1825       4.1860      -2.0902     0.038638
ess_rate:0.89667
374 th observation is being processed

      -9.1843       4.1902      -2.0932     0.041601
ess_rate:0.901813
375 th observation is being processed

      -9.1888       4.2081      -2.1051     0.046913
ess_rate:0.890715
376 th observation is being processed

      -9.1853       4.1975      -2.0999     0.041721
ess_rate:0.871606
377 th observation is being processed

      -9.1806       4.1812      -2.0894     0.035987
ess_rate:0.835246
378 th observation is being processed

      -9.1744       4.1663      -2.0801     0.029410
ess_rate:0.762201
379 th observation is being processed

      -9.1644       4.1520      -2.0714     0.016952
ess_rate:0.698464
380 th observation is being processed

      -9.1539       4.1103      -2.0431     0.012466
ess_rate:0.592283
381 th observation is being processed

      -9.1394       4.0886      -2.0296   -0.0052111
ess_rate:0.503983
382 th observation is being processed

      -9.1256       4.0669      -2.0171    -0.020562
ess_rate:0.375833
PMCMC
