"","x"
"1",-0.00212897947926294
"2",0.0124751420057292
"3",-0.0199742662099647
"4",-0.0136848492356245
"5",-0.0193147430776879
"6",0.00630477213861624
"7",0.00865471998133582
"8",0.0149757182534538
"9",0.0101340417577074
"10",0.0236331134938208
"11",0.00135681094067586
"12",0.00016756797967421
"13",-0.0037541534305463
"14",-0.00307791496205656
"15",-0.00282592356879441
"16",-0.0045860502832884
"17",0.00292362907706689
"18",0.000238758150681306
"19",0.00130061547442306
"20",-0.000938736007133123
"21",-0.00875252040474717
"22",-0.0196926689870418
"23",-0.00469983875849955
"24",0.00856537982609051
"25",-0.0141432711039657
"26",0.0129828072619089
"27",-0.00501254182354405
"28",-0.00354689263561792
"29",0.00349132098191074
"30",-0.00901959549676867
"31",-0.00843900442484014
"32",0.00901562719338944
"33",-0.00660296398536797
"34",0.00104717112288544
"35",0.0124256012202055
"36",0.00582736060901201
"37",-0.0080004871433248
"38",-0.0107437030485054
"39",-0.0115120258700969
"40",-0.0226039758503793
"41",-0.00509697875657711
"42",0.0233567075676566
"43",0.0115456778474874
"44",4.85370135265839e-05
"45",0.00126113615964751
"46",-0.0260107799831282
"47",-0.0297931619459506
"48",-0.00738251193310191
"49",0.0186043153254385
"50",0.0114898419311142
"51",0.00178550617295414
"52",0.0612711915757211
"53",-0.0127990384464534
"54",0.0176406402326803
"55",0.0427900939944985
"56",-0.00596860018047973
"57",0.00571438696899662
"58",-0.0397308298554062
"59",-0.00618936051177865
"60",-0.00698449208660978
"61",0.0199667880386665
"62",0.00801288188866245
"63",0.0102662788647034
"64",-0.00309318947486936
"65",-0.0241365393018311
"66",-0.014752357029554
"67",0.0212035911432933
"68",0.00817886861379691
"69",-0.00163812797876961
"70",-0.00391003571418924
"71",-0.00666757003671847
"72",0.0267712097564408
"73",0.0131738747552532
"74",-0.00589211518799626
"75",0.000939365884425669
"76",-0.00248936882825035
"77",0.0100397936292582
"78",0.0132486599207766
"79",0.00526094949085731
"80",0.0325641141297925
"81",0.00885076988954392
"82",0.0116781598104181
"83",-0.0211879316547581
"84",-0.0131499634887922
"85",-0.00798971649741276
"86",-0.00325597366701036
"87",-0.00912808553271116
"88",0.0106377388895371
"89",-0.0159440777751056
"90",0.0145651576138031
"91",-0.00390757671097841
"92",0.00858093948946337
"93",-0.00262743758991579
"94",-0.00328858114372288
"95",-0.00682208029812426
"96",-0.00432891580168526
"97",-0.00753578619218764
"98",0.00433208336255042
"99",-0.0192903768217887
"100",-0.014330647363729
"101",-0.000549429599078444
"102",0.00310945050212386
"103",-0.00505013050180825
"104",-2.29439364920481e-05
"105",0.00313842534679321
"106",0.00491308047585104
"107",-0.00634743972351792
"108",-0.0282950086856619
"109",-0.000377070948794689
"110",-0.00070739148420973
"111",-0.00513175357127071
"112",-0.00449115001803868
"113",-0.00434395871323368
"114",0.0023413992188388
"115",0.0246396450139859
"116",0.012778026611433
"117",-0.0105376027072346
"118",0.00351717010367913
"119",-0.00585073061606511
"120",-0.00749481522591999
"121",0.017234788338345
"122",-0.0108660600022317
"123",0.00503810641144753
"124",-0.0119935170759176
"125",-0.00259334416251011
"126",-0.0167155083468922
"127",-0.012571107890313
"128",0.00919901631749642
"129",-0.0175788063359548
"130",0.0170103447298349
"131",-0.00369887890883458
"132",-0.0014560200140501
"133",-0.0148413993691694
"134",-0.0200041330004295
"135",-0.00369115045044488
"136",-0.0266992260410062
"137",0.0137396448879432
"138",0.00780934077666018
"139",0.00263715004852383
"140",-0.00674950384302697
"141",-0.0133633414126972
"142",0.0184843444593179
"143",0.013799881930681
"144",0.0232678149077037
"145",-0.0124961914135557
"146",-0.00104979997831123
"147",0.00469911057820305
"148",-0.00529010773891869
"149",-0.0274523452917794
"150",-0.00206975570523937
"151",-0.0131089135351905
"152",0.0268576341045756
"153",-0.00378574656444464
"154",-0.0162576384037951
"155",-0.00448637782964489
"156",-0.0126111367888422
"157",0.00317204032657692
"158",0.005782252941267
"159",-0.0156947011478792
"160",-0.00178826163246892
"161",0.00854598313139654
"162",-0.0042682092366837
"163",-0.0205443063146769
"164",-0.0109573514033716
"165",-0.00983666220737511
"166",-0.0293668248745336
"167",0.0261541893861024
"168",-0.011344592267962
"169",0.00277260260426448
"170",-0.00912710048038434
"171",-0.0232600187847263
"172",0.00202450284368627
"173",-0.0657363299213971
"174",0.01274643569361
"175",0.0297471524572215
"176",-0.0368073229866752
"177",0.0165613825376463
"178",0.0243485202064795
"179",-0.0127390257774298
"180",-0.0264161827105474
"181",0.0110586432093047
"182",-0.0109785021610174
"183",0.00549435465083903
"184",0.0193770861462017
"185",0.0228076248743312
"186",0.0194836537925314
"187",-0.0163177966060104
"188",0.0196467380668297
"189",-0.000691059215787604
"190",-0.0259779447919586
"191",-0.0114070961186119
"192",0.0319614194643183
"193",0.0212075936426492
"194",-0.01454227530028
"195",0.00593506677205546
"196",0.00871754929741186
"197",-0.0177363560030264
"198",0.00202886289693627
"199",0.0021738834757743
"200",0.0209901099599845
"201",0.00408022570114408
"202",0.00689298714368736
"203",-0.00598449082420505
"204",-0.0170069167023117
"205",-0.0138487432404029
"206",-0.00788860437223082
"207",-0.00329984934819549
"208",-0.0020857437546784
"209",0.00034160135454453
"210",0.00899137149297058
"211",-0.0238251488616035
"212",0.00760686075928341
"213",-0.0150876862519036
"214",-0.00942552631044347
"215",-0.00454459235541638
"216",0.00257420631642447
"217",0.0246758592651357
"218",0.00807597865684873
"219",0.0112936866714488
"220",-0.00887503054907146
"221",0.00289468658578507
"222",0.00361132064103664
"223",0.0244522325821723
"224",-0.00846727927693802
"225",-0.0246627405849651
"226",-0.00455802748412548
"227",0.00163909467207013
"228",-0.020013843445839
"229",-0.000884392475193785
"230",0.0181521864065601
"231",0.0101550719041894
"232",-0.0117317338171157
"233",-0.0216051670367525
"234",-0.00848864044301312
"235",0.0209480759149123
"236",-0.0226841018389239
"237",-0.00610986754806664
"238",-0.0178184236634822
"239",0.00366372868295528
"240",0.00407185107676522
"241",0.0157384801810583
"242",-0.00490102417166582
"243",-0.0046758344988147
"244",-0.00882404327347608
"245",0.0196446095369041
"246",0.017997719250352
"247",0.0209201819616283
"248",0.0011189608108868
"249",-0.0223976855422707
"250",-0.00657340536316298
"251",-0.0145837351191798
"252",-0.0101786353212345
"253",-0.0198162282047205
"254",0.00740883399932191
"255",-0.00274776980100988
"256",0.0228261288078153
"257",-0.00179789168704314
"258",-0.0207947381374627
"259",-0.0101310339919047
"260",0.0053588723282143
"261",0.00549261913459187
"262",0.0112968198882539
"263",-0.0185248593789691
"264",-0.0143970297214242
"265",0.00725015052807354
"266",-0.0160893083433962
"267",-0.0134228790158399
"268",-0.0184411947667371
"269",-0.0040675528554992
"270",0.0200999389233507
"271",0.00923225026091234
"272",0.0250835626283177
"273",0.00927824852676551
"274",0.000874330328876738
"275",-0.00156620288913611
"276",-0.000834954075124017
"277",-0.0223737727411564
"278",-0.00318227378373237
"279",0.0328737588354828
"280",0.00030332443814185
"281",-0.00209481382674959
"282",-0.00334865910044613
"283",0.0234666720137628
"284",0.00655130053465403
"285",0.0160181901101089
"286",0.0463479197850232
"287",-0.00346276484983488
"288",-0.00181507680133031
"289",0.0229969290803105
"290",0.00888306558210594
"291",0.0154912748878049
"292",-0.0241649535631101
"293",-0.0210286188313678
"294",0.00757558332680119
"295",0.0122507400687279
"296",-0.00832811922511922
"297",0.022400558619724
"298",-0.013516653512748
"299",-0.0195179294742163
"300",-0.00319095268966052
"301",-0.00846848114265608
"302",0.0123001172498531
"303",0.00473203800007926
"304",-0.02076037633213
"305",-0.00636815247904199
"306",0.0143536144765912
"307",0.0145563518623586
"308",0.00668204086437818
"309",-0.00359742328185675
"310",0.00224990567252092
"311",-0.0171156262971177
"312",0.00598210878020122
"313",-0.00840184528478716
"314",-0.0120263428630363
"315",0.00869078898293907
"316",0.0117930515969107
"317",0.0105640470385726
"318",0.00520851197403172
"319",-0.0027336035197818
"320",0.0123829605998322
"321",-0.00127578158915842
"322",-0.00524687798780477
"323",-0.000364126283017185
"324",-0.0101485623141331
"325",-0.0047665455411785
"326",0.00447217627120455
"327",-0.000377287308758412
"328",-0.0114597990256362
"329",0.00708762267151997
"330",0.00842286596238484
"331",-0.00454782190172498
"332",-0.0103390947615436
"333",-0.00270184821600061
"334",0.0139981626957262
"335",0.0165685127287505
"336",0.00305371335464333
"337",0.0077190622618053
"338",-0.000689503897941535
"339",0.0118521620890482
"340",0.00636211362609096
"341",0.0022404690632527
"342",-0.00660399695157565
"343",-0.000698166678087198
"344",-0.00477649353551524
"345",-0.00396075371484628
"346",-0.00108861515716452
"347",0.0107801958604172
"348",-0.0126926011581512
"349",-0.00149493584847882
"350",-0.0073639822966145
"351",-0.00562005144479993
"352",-0.00805508022967949
"353",0.00754672411528201
"354",-0.0069522236839088
"355",-0.0176741064058819
"356",-0.0190349512199992
"357",-0.0274637926844905
"358",0.0151906554154335
"359",-0.0284200232031058
"360",0.0105642224827358
"361",-0.0203629179579439
"362",0.0107960047977924
"363",0.00315324010075191
"364",-0.0321413575287295
"365",0.00987709778204593
"366",0.0305530615381029
"367",0.00364253003155657
"368",0.000408226746464457
"369",0.0146245721215692
"370",-0.0104933767350186
"371",0.00928599430811605
"372",-0.00862813137141138
"373",0.0154983837550793
"374",-0.0123408675529797
"375",-0.0195583596559068
"376",0.00229785830825691
"377",-0.0188422348771864
"378",-0.0160707938831042
"379",0.00361953726503295
"380",0.0220405074580041
"381",-0.0204124437353803
"382",0.00174646083307817
"383",0.0014010192437155
"384",-0.0164515810241905
"385",-0.00888611333143974
"386",-0.0260812455891495
"387",0.00932998145170405
"388",0.0239259520079882
"389",-0.0102683431762607
"390",-0.0066646465476925
"391",-0.0029043062621259
"392",-0.000470915730485189
"393",-0.0168255692471959
"394",0.0240428050554513
"395",-0.00239301769540656
"396",0.0214459184598743
"397",-0.0215292570019141
"398",-0.00524343423420515
"399",-0.00244307907384211
"400",0.00960154480440067
"401",-0.000644872763993831
"402",-0.0175388772129663
"403",0.0012909781480186
"404",0.00183835234023544
"405",0.0142950903662769
"406",0.00235931284054747
"407",0.0184525677968761
"408",-0.0189094448425982
"409",-0.00930744004853423
"410",-0.0171817357507091
"411",0.00422496118838467
"412",-0.0120514279085144
"413",-0.0284767961363919
"414",-0.0199377775415419
"415",0.0197276342562285
"416",-0.010809834017671
"417",0.0150043321371847
"418",0.00522945941985586
"419",0.00490789142836601
"420",0.00384170073025558
"421",-0.0133623997579839
"422",0.0260875384158341
"423",-0.00497794287839959
"424",0.0164305254282429
"425",-0.0175197268062997
"426",-0.0116561808535716
"427",-0.0167212697812671
"428",0.0144371033009039
"429",0.0240746262318057
"430",-0.016336167996192
"431",-0.0193821088104542
"432",-0.0112881082832512
"433",-0.0108509523607623
"434",0.00902444736795527
"435",-0.0355388499193463
"436",0.000371820647301568
"437",-0.0193545347655908
"438",-0.0103340404147376
"439",0.015225585684937
"440",0.0326289815199665
"441",0.00555171446750791
"442",0.00340901055548937
"443",0.0106725559105874
"444",-0.00546262498126282
"445",-0.0303056955748282
"446",0.00416503367222365
"447",-0.00775390853979552
"448",0.0143706193886475
"449",0.000275226203271473
"450",-0.0108367153431397
"451",0.00865576450276251
"452",-0.00922389034052173
"453",0.00537844026700984
"454",0.0210596575681494
"455",-0.00238610968308883
"456",-0.00301621727704671
"457",-0.0207458704248067
"458",-0.0297725087120577
"459",0.00289836260649956
"460",-0.00380657361286918
"461",-0.015105809064405
"462",0.0185788428638229
"463",-0.0186395324185629
"464",-0.00822708838617103
"465",0.0166639169830178
"466",0.0202905684584582
"467",0.0131233941548397
"468",0.0176993728754162
"469",-0.0119537315793368
"470",0.0060695061880045
"471",0.021464594005316
"472",0.00515491109674571
"473",-0.0049522563184663
"474",0.00276550714180068
"475",-0.0182397915018528
"476",-0.00895775202901916
"477",-0.0071895696690687
"478",-0.00670341468532687
"479",0.00184646361288276
"480",-0.00532660281545549
"481",-0.000716277735012483
"482",-0.0184346304794714
"483",-0.00955771616713452
"484",0.00494054290397994
"485",-0.0196406056113618
"486",0.00872685765236092
"487",-0.000522685154878744
"488",0.00889690968470624
"489",-0.00339206389911251
"490",0.0191148122675813
"491",0.00743409974942111
"492",-0.007042698706619
"493",0.0197028729498943
"494",-0.00716455806800909
"495",-0.0169831892104817
"496",-0.000262079483058564
"497",-0.00194391336265554
"498",0.00974110815020524
"499",0.0114719516667616
"500",0.000747681055415228
"501",0.00343913369779703
"502",-0.00624582481638214
"503",0.0113419243941522
"504",-0.0111545663758523
"505",0.0132250443084514
"506",-0.00471395773285099
"507",-0.013240892528275
"508",-0.0105373059080485
"509",-0.0184786040687488
"510",-0.00067842607758184
"511",-0.00483497667962673
"512",0.0199177109145836
"513",0.00780046286845515
"514",0.00121925971720227
"515",-0.00633739748919826
"516",-0.0010005599205245
"517",0.00425734975299985
"518",0.0171071045651416
"519",-0.0049349899014528
"520",0.00589110209592469
"521",0.00424480939740945
"522",-0.00581938327572296
"523",-0.00363681414011197
"524",-0.00497963376456667
"525",-0.0109385154205226
"526",-0.00136980611864779
"527",-0.023859189601434
"528",-0.000977063513573739
"529",0.00100147787410165
"530",-0.000573895115053347
"531",0.00839237210623001
"532",0.00292680775907961
"533",-0.00634822770877275
"534",-0.00804138485714567
"535",-0.0248711955883669
"536",-0.0147406650879045
"537",-0.0178766801358146
"538",0.0151196070118216
"539",-0.00492031129494297
"540",0.00963844401926028
"541",-0.011322541272146
"542",0.00813705419371136
"543",0.00702007156046847
"544",0.0230505771125591
"545",0.0292288228935256
"546",-0.0232896906232618
"547",0.0111893046065141
"548",0.00246825140964901
"549",-0.00675044296559335
"550",-0.0372664424511813
"551",0.00121753261793689
"552",0.0108414444628826
"553",-0.00487670959705166
"554",0.00235334201221793
"555",0.0187163414542901
"556",-0.00986866427260491
"557",-0.0018082172791738
"558",-0.0109816049726081
"559",-0.0129171717347765
"560",-0.00852456601967244
"561",0.0161527954849001
"562",0.000913010461596642
"563",0.000684211219880382
"564",0.00154408910454862
"565",0.013902805392247
"566",-0.0179960559860284
"567",0.00235914977127205
"568",0.0064402293566399
"569",-0.0157569483535571
"570",-0.0114846966543896
"571",0.0298940497534002
"572",0.00344639942096148
"573",0.00662126077780201
"574",0.0206522595062575
"575",0.001751548256542
"576",-0.00990488010263402
"577",0.0107187919656866
"578",0.00694590093954517
"579",-7.2356282365682e-05
"580",0.00337106025958445
"581",-0.0144305443460624
"582",-0.00111026395422176
"583",-0.0106526294842322
"584",0.00462844111965044
"585",-0.00548014055828183
"586",0.00770057807465641
"587",0.0123247857831981
"588",0.000955751214513079
"589",-0.0147520993263965
"590",0.00910113357066944
"591",0.014259823985693
"592",0.00428276425936946
"593",0.0105092254144772
"594",0.00338449706021926
"595",0.00178785716540286
"596",0.00967174162071327
"597",0.0120314728603228
"598",0.00544735488090264
"599",-0.00550485357282327
"600",0.0058936338368305
"601",0.00115401547304828
"602",0.00636310420675734
"603",-0.0100010526659924
"604",0.0143939767179084
"605",0.00944485196830058
"606",0.00231384553528002
"607",0.00343294399719429
"608",0.00620062439780256
"609",-0.0240506234688711
"610",0.00192377390491405
"611",0.00375764241308651
"612",0.0169749234870888
"613",0.00042070302308872
"614",0.0140904677777298
"615",0.0311386963100881
"616",0.00758824938755165
"617",-0.00396610921182639
"618",0.0191788559653618
"619",0.00953005658730532
"620",0.00314980216237259
"621",-0.00536468791433542
"622",-0.0295450466131566
"623",0.00868513362822831
"624",0.000838196669047164
"625",-0.00584004600861476
"626",-0.0209496394303548
"627",0.00376874751516443
"628",-0.00528669674541327
"629",0.0139937237330905
"630",0.00425119774324934
"631",1.05789320574701e-05
"632",0.0151291357434413
"633",-0.00157466388442629
"634",-0.0145811496941057
"635",-0.00521312847497502
"636",0.00319905045356172
"637",-0.0084073955606998
"638",-0.00973131190843812
"639",-0.00313846278262808
"640",-0.00724514722283853
"641",0.00170177527461313
"642",0.0119720388327806
"643",0.0065160097652317
"644",0.0182049717237929
"645",0.0147888183139875
"646",-0.00120162440910843
"647",0.0115624903399425
"648",0.0148886124937508
"649",0.0104834972948584
"650",0.00845498556335667
"651",-0.00534319816445272
"652",-0.00639362817366873
"653",0.00394091150891995
"654",-0.0010687123035158
"655",-0.00718092726586139
"656",0.0085191342684503
"657",0.024643685344568
"658",0.00184832147254088
"659",0.00423821911787226
"660",-0.0029561303033061
"661",-0.00390967411707521
"662",0.00168439540347887
"663",0.0171392809779816
"664",-0.00165574836002769
"665",-0.0193921672831179
"666",0.0181077933346199
"667",0.0184638757782274
"668",0.0098378037368807
"669",0.0029418631280862
"670",-0.00531281541956918
"671",-0.0253937732737004
"672",0.000440853729958057
"673",-0.0254932415378075
"674",0.00360077898924605
"675",-0.0100794207276174
"676",0.00786358147913369
"677",0.0108750839944571
"678",0.0261611907072794
"679",0.00905801588887289
"680",0.00185419353586713
"681",0.00575601561229977
"682",-0.0190261918396297
"683",0.00264168425973654
"684",0.0153328017185821
"685",0.0124284980723619
"686",-0.00646797573218993
"687",0.00971842851509397
"688",0.00342265507269968
"689",0.00999926519924976
"690",-0.0111693370910499
"691",-0.0180525977204669
"692",-0.0542705791599047
"693",0.00779624128879597
"694",0.00766816043910623
"695",0.0118381025031544
"696",0.0113780290609755
"697",-0.00311702344753684
"698",-0.0100038503381636
"699",0.0252217195617801
"700",-0.00628130991032361
"701",-0.0264346845523571
"702",0.00920841602379951
"703",-0.0113351097212337
"704",-0.0255418946181614
"705",-0.00114230668949578
"706",0.0121898519279604
"707",-0.0115837702274817
"708",-0.0352598361072829
"709",0.00159356029877689
"710",-0.0210219354390757
"711",0.0192225693584875
"712",0.0028363857177478
"713",0.0139208183148281
"714",0.0139792139425898
"715",0.0040734470930035
"716",-0.00634144089152677
"717",0.0205623325670876
"718",0.00291582480732888
"719",-0.00728588169845423
"720",0.00721748658965549
"721",-0.00392589289511047
"722",-0.0239650124911988
"723",0.00211776238774863
"724",-0.0169976336609627
"725",0.0104996627806528
"726",0.00781053713541446
"727",0.0239914556527463
"728",-0.0178821889273939
"729",-0.0149092631717336
"730",0.00566100065336705
"731",0.0130129868706925
"732",0.00657159198182278
"733",-0.00325569293404016
"734",0.000958076808318609
"735",0.00545437996918086
"736",0.00760013635274071
"737",0.0168608729780075
"738",0.0145531132033918
"739",-0.00330103539781401
"740",-0.00371128379699659
"741",0.00505571361103563
"742",0.00834790733743507
"743",-0.00694859163910344
"744",-0.000425260478448486
"745",-0.0127277558594399
"746",0.0136914201253875
"747",0.0123878945592439
"748",0.00351006593769299
"749",-0.00520900031195115
"750",0.00382320495533861
"751",0.00230549795805413
"752",-0.00753109656133422
"753",-0.00514959795906034
"754",-0.00491160585976669
"755",-0.00760813429485019
"756",-0.00249804672150855
"757",0.00185982685692299
"758",-0.00590614979838033
"759",-0.0200114137558423
"760",0.00280261304783203
"761",0.00326143860419403
"762",-0.00395403709548159
"763",0.000468288122819516
"764",0.00550542204503035
"765",0.00976870032633048
"766",0.00382541632821898
"767",0.00913500634782327
"768",-0.00154679071829822
"769",0.0061822974768857
"770",-0.00070812505614537
"771",0.00870805491454618
"772",-0.0180835387454135
"773",-0.00236722648821175
"774",0.0129415078894795
"775",0.0209482572743349
"776",0.0229500454300577
"777",0.00822716893542097
"778",-0.000662856757640107
"779",0.0041668962414283
"780",0.00918431809399678
"781",0.000901442368734351
"782",0.00203850280398399
"783",-0.00525028385489001
"784",-0.00716848947861237
"785",-0.0116443761095262
"786",0.0157240874591924
"787",-0.0035264609897725
"788",0.0183416775031544
"789",0.00349739363759483
"790",-0.00667311347474442
"791",-0.00580723260153526
"792",0.000927541419384781
"793",0.0117622598124392
"794",0.0121860177949946
"795",0.0139709161868025
"796",0.00241987984729874
"797",-0.00310870517228157
"798",0.00315958712615938
"799",-0.00358502490804735
"800",0.00779078291733359
"801",0.012620581704808
"802",0.00846941974138282
"803",-0.00383556439988109
"804",0.00420756822341062
"805",-0.0158537112001937
"806",0.0131058882782495
"807",0.00827845944115335
"808",0.0010433483388228
"809",-0.0192334346240379
"810",0.00126314925718773
"811",-0.0111049204578704
"812",0.0179283832284289
"813",-0.000647851315870085
"814",0.00183448974203859
"815",0.00316301362480687
"816",0.00110717277419781
"817",-0.0049836603003639
"818",0.00164188671382792
"819",-0.0172240106653101
"820",-0.0179205748358262
"821",-0.0123915182821426
"822",-0.0584579970669035
"823",0.00308126971249578
"824",0.0302302325259722
"825",-0.0237857434009241
"826",-0.00404125920302789
"827",-0.0351878486822299
"828",0.0210713999954404
"829",0.0274489481150448
"830",-0.00114877559500393
"831",0.0182239023997743
"832",0.00503524843824188
"833",-0.0135587752984589
"834",0.010326009090333
"835",-0.000532415225453775
"836",0.0138740535394746
"837",-0.00213817600476585
"838",0.00379124965433419
"839",-0.00648800683701367
"840",-0.0153431212841255
"841",0.00482061765859321
"842",0.0234566942691856
"843",0.00541222923234042
"844",-0.00445755036585105
"845",0.00802655043871869
"846",-0.00151569983718591
"847",-0.00151800067099739
"848",-0.00626885300288382
"849",0.0136217324559018
"850",-0.000265653187043746
"851",-0.0145902288618807
"852",0.0132780671662545
"853",-0.0025262520094671
"854",-0.00530523528410765
"855",0.0110102956476421
"856",0.00297258269625988
"857",0.012005027521365
"858",0.000345465349470331
"859",0.0021795759719323
"860",-0.000992422348717881
"861",-0.0125913508296769
"862",-0.0146092002952773
"863",-0.00654084708158198
"864",-0.00796030190059938
"865",-0.0042903427745884
"866",0.0104474376148991
"867",0.01278714469208
"868",0.00411486094858127
"869",-0.0129253382728267
"870",-0.000321374443075229
"871",3.47481626947754e-05
"872",-0.0101542329421251
"873",0.0124102774927177
"874",-0.00822433891591068
"875",-0.00791371036536059
"876",-0.00739100357766187
"877",-0.0111899513228035
"878",0.013591827890191
"879",-0.00680401626507798
"880",0.0153190570922446
"881",-0.00321767005528617
"882",-0.00761051461990636
"883",-0.0109467189403114
"884",0.00187308769100003
"885",-0.00875017386189114
"886",-0.00502561398952661
"887",0.00312699940742167
"888",0.0144558315950967
"889",-0.00347580912228107
"890",-0.0184374901693136
"891",-0.0111578319564165
"892",0.00486533929484345
"893",0.00453129422668841
"894",0.0114423958612981
"895",0.00212869670698446
"896",0.00395669736729953
"897",0.00211579573649079
"898",0.0109730695953676
"899",0.00100930517027731
"900",0.00680826673846724
"901",0.000210914843913557
"902",-0.00747058692105451
"903",0.00535943397565131
"904",0.00173323229545197
"905",-0.0114401134520268
"906",0.0162195036857167
"907",0.00145121411640581
"908",-0.000498071077172924
"909",-0.00966963292371847
"910",-0.00598369551394118
"911",0.0110190060700859
"912",0.00250817920259738
"913",-0.0116910935909411
"914",-0.00570556639244479
"915",-0.00308851604098148
"916",-0.00226441873028627
"917",-0.00173983273339129
"918",-0.0105665446578174
"919",-0.00648889021963228
"920",-0.00445642915227396
"921",-0.00123887892728458
"922",0.0119483150058919
"923",0.0136795861224419
"924",0.0196395794632185
"925",0.00058783017787789
"926",0.00661770656367455
"927",-0.00511023024882018
"928",-0.00156010373901694
"929",-0.0116991355802778
"930",-0.00296854803689417
"931",-0.012377570587776
"932",-0.00383742451831015
"933",-0.00387945195366779
"934",0.00682429699343601
"935",-0.0133572010280467
"936",-0.00810449354677711
"937",0.00526667730861163
"938",-0.0145157583939852
"939",-0.00178744368733952
"940",0.00101513869084791
"941",0.014747049480559
"942",-0.00443080589565881
"943",-0.0045523248802759
"944",0.0132208712572464
"945",0.00638211901467667
"946",0.00925020823345424
"947",-0.00850630907912731
"948",-0.00216065157773127
"949",0.000372546084170366
"950",-0.00876882440822069
"951",0.0117442071435683
"952",0.0174640463842017
"953",-0.00276312212308838
"954",-0.0051544199524427
"955",-0.00391935275143673
"956",-0.000432428543418517
"957",-0.018186121845484
"958",0.00106387867144608
"959",0.00322141050440816
"960",-0.00296478168908276
"961",0.0112903910730502
"962",-0.00436798900070201
"963",-0.0104568342989166
"964",0.0164364271939608
"965",0.00464821159028617
"966",-0.00616920704892099
"967",-0.00912001515510141
"968",0.00548016526270079
"969",-0.0110916670317467
"970",-0.0034724975598559
"971",0.00188972369487495
"972",0.0125471241871473
"973",0.00197158976675205
"974",-0.000590160677020002
"975",0.00929305826418592
"976",-0.00143171681870768
"977",0.0059117013281158
"978",0.00547613716117201
"979",0.0107397379734415
"980",1.7627357658867e-05
"981",0.00490593563540642
"982",-0.000684330611019135
"983",0.00892956690087932
"984",0.00325661053510196
"985",-0.00872546615777914
"986",0.00402386929882859
"987",-0.00192699287524434
"988",0.0100215335954026
"989",-0.00816423138076683
"990",-0.00686212498098548
"991",0.00494372608082649
"992",0.00401570232885806
"993",-0.00443475161693208
"994",-0.000794929961362989
"995",-0.00959760096969475
"996",-0.00105051763098452
"997",0.00616372760083461
"998",-0.00101000794635642
"999",0.00600986512687118
"1000",-0.00257999207317994
"1001",-0.00108646139730695
"1002",0.00475766582827841
"1003",0.000305326199796063
"1004",0.00476841918815296
"1005",-0.00213775565014629
"1006",-0.00348581193217878
"1007",0.0077481006591551
"1008",0.000865860892941939
"1009",0.000328830663826274
"1010",0.00423052649089861
"1011",0.00679173695713597
"1012",-0.000359465940193537
"1013",-0.00278595886392186
"1014",-0.00258716789415558
"1015",0.00398540360025379
"1016",0.000145715743129493
"1017",-0.00364927870284948
"1018",-0.0082403810796432
"1019",0.00397318840439098
"1020",0.00842202606375064
"1021",0.00859802118591979
"1022",0.00211257825748046
"1023",0.00491206215913831
"1024",0.00320811312395541
"1025",0.00217498185781118
"1026",0.00645503382697576
"1027",-0.0037073881192935
"1028",0.00437392705734574
"1029",-0.00434046573444924
"1030",0.003815603498734
"1031",-0.003798873257149
"1032",-0.00221919906841439
"1033",0.00455867458921233
"1034",-0.00499471867011447
"1035",0.00916709960390705
"1036",-0.000615185115295347
"1037",-0.0072359759382703
"1038",-0.00454185619718217
"1039",0.00447484385851027
"1040",0.000226148647632485
"1041",-0.0155468472395626
"1042",-0.0055528924249435
"1043",0.0111174160715093
"1044",0.00364760523988661
"1045",-0.00282742365475741
"1046",0.00559644772351309
"1047",0.00539812376955684
"1048",0.000501450036834328
"1049",0.00372790897636488
"1050",-0.0093501613696656
"1051",-0.00915005961864157
"1052",-0.0024536556053425
"1053",-0.00679801834105653
"1054",-0.0153080273902315
"1055",-0.0364439311393117
"1056",0.0154014313447099
"1057",0.00426881759200981
"1058",-0.00728211302814685
"1059",0.00671634715172154
"1060",0.00113121184280995
"1061",-0.000759891884516861
"1062",-0.000893169084982048
"1063",-0.000327400311743276
"1064",0.00165360182348095
"1065",0.0166133079359625
"1066",0.00149354849666672
"1067",-0.00251948388317569
"1068",-0.00373004685420675
"1069",-0.00420861680184093
"1070",-0.00498394657146939
"1071",-0.0101409519352114
"1072",-0.0103437781927713
"1073",-0.00235929870806562
"1074",0.0198434617725747
"1075",-0.00142400399080245
"1076",0.0069504138676022
"1077",-0.00120492008896278
"1078",-0.0102786373447472
"1079",-0.00106752078459227
"1080",0.00783747539759538
"1081",0.00828464348855551
"1082",0.00224838136963967
"1083",0.00449905284968466
"1084",-0.000556923707146773
"1085",-0.000984076332262163
"1086",-0.00204963679811776
"1087",-0.00359481370052794
"1088",0.00635865536643632
"1089",-0.00856040098507282
"1090",0.00893471927315037
"1091",0.000600357622344561
"1092",0.000582611245223852
"1093",0.00684412000347567
"1094",0.00199243630389123
"1095",0.0101078074471914
"1096",-0.00143407138594309
"1097",-0.00128216104409962
"1098",0.00350068663512459
"1099",0.000656081343535675
"1100",-0.000477107375247421
"1101",-0.0102960351062844
"1102",0.00742860068838169
"1103",0.00543771422299955
"1104",0.000611807911405471
"1105",0.00389996255225711
"1106",0.00362348309578664
"1107",-0.00226208157231422
"1108",0.000185886170604554
"1109",-0.00288512584587863
"1110",-0.00221390097339036
"1111",0.00627269127755437
"1112",0.000835080161391666
"1113",-0.000261414761303591
"1114",0.00460269990092499
"1115",0.00178656101066021
"1116",-0.00148438280716068
"1117",0.00402034161572029
"1118",-0.00131320880905772
"1119",-0.00671842360463426
"1120",0.00295326735558454
"1121",-0.00105914404171603
"1122",0.00834182677943218
"1123",0.00229100900393853
"1124",0.00270910540892455
"1125",0.00548708439140633
"1126",-0.00199933972747335
"1127",0.00233767520269978
"1128",-0.0064978562284379
"1129",-0.0125181298407133
"1130",0.00227626941453973
"1131",0.0119842813379618
"1132",0.0177317185824304
"1133",0.0128582968304203
"1134",0.00111697287886958
"1135",0.00291912473217959
"1136",0.0026790478618901
"1137",-0.00161456661589732
"1138",0.00226924157720632
"1139",-0.00194931835604972
"1140",0.0153316868065296
"1141",0.00171530677586418
"1142",0.00283403065320886
"1143",-0.00593632206360795
"1144",0.00346386125626896
"1145",-0.0109202618137694
"1146",0.0118157631579505
"1147",-0.00181540312895301
"1148",0.00473982885473045
"1149",0.00426543152526015
"1150",0.00603883934384708
"1151",-0.00331412686673449
"1152",-0.000598800084770978
"1153",-0.00516297229422324
"1154",0.0112354180248415
"1155",0.0126387023198369
"1156",0.00453999164906005
"1157",-0.0025950222126303
"1158",0.0113198462916273
"1159",0.00116711168199135
"1160",0.0176705314266625
"1161",0.00382254435581064
"1162",-0.00109803874801973
"1163",0.0220739553960314
"1164",-0.00708604255558853
"1165",0.0178323546700234
"1166",0.0188442104316113
"1167",-0.0111604764929618
"1168",-0.000708325689420697
"1169",0.00744768029869736
"1170",-0.00858913986005749
"1171",-0.0275453942715362
"1172",0.000838226071260273
"1173",0.02409321474327
"1174",0.000639913562406669
"1175",0.000639504334896124
"1176",-0.00702852785771046
"1177",-0.00323141413614536
"1178",-0.000524028137227184
"1179",-0.00931306258337372
"1180",0.00301766320475316
"1181",0.0010255226008189
"1182",-0.00642320637553961
"1183",0.0123534571499917
"1184",0.0100596641012656
"1185",0.011400280274632
"1186",-0.00281325791800757
"1187",0.0173782636860533
"1188",0.0193922622263747
"1189",0.000834670777641655
"1190",0.0139701319585912
"1191",0.00275875142820503
"1192",-0.00106118508948949
"1193",-0.00657905925200719
"1194",-0.00203876412552262
"1195",0.00663258832414737
"1196",-0.00950601784159488
"1197",-0.00538456847917601
"1198",0.00937545945614815
"1199",0.0160114477183591
"1200",0.0140174156913826
"1201",-0.0026738945262732
"1202",-0.0006679545777315
"1203",-0.00584723988576652
"1204",0.00789552916845615
"1205",0.00895518659153982
"1206",0.00073834200245404
"1207",-0.00542721032987448
"1208",0.0152456748417285
"1209",0.0152124911181666
"1210",0.00870721468568636
"1211",-0.00390729617712449
"1212",0.00454556211789559
"1213",-0.0188556159039734
"1214",0.0142409272625175
"1215",0.0163868100016877
"1216",0.00532114571636466
"1217",-0.0148313315958211
"1218",-0.0116453023097138
"1219",-0.00182022777816915
"1220",0.00533751842878427
"1221",0.0154534595033446
"1222",0.013777111006096
"1223",0.000922343060926423
"1224",0.00672382911846992
"1225",-0.00669940775221534
"1226",0.00971497836306234
"1227",0.0059258628891472
"1228",-0.00844426793968811
"1229",0.0140304393460644
"1230",0.00719431848016416
"1231",-0.000148365751522661
"1232",-0.0154731206347538
"1233",0.0080505437098326
"1234",0.0070901577412732
"1235",-0.00157455551346519
"1236",-0.00688579741075124
"1237",-0.0233461853586787
"1238",-0.0355215308807662
"1239",0.0285594190542806
"1240",0.00252721512270071
"1241",-0.0227199721419602
"1242",0.0153299693428846
"1243",0.00373272194437924
"1244",0.0152252500332812
"1245",0.0282175302526682
"1246",0.00822487403389349
"1247",0.00380082740401022
"1248",-0.0097092988610239
"1249",0.00985542121245153
"1250",-0.00179000802406115
"1251",0.00253782012439085
"1252",0.000683058141959236
"1253",-0.0248649385957034
"1254",0.00648251192925375
"1255",-0.0131880037807051
"1256",-0.0257531246206764
"1257",0.0105925834806762
"1258",-0.00672494189655293
"1259",0.00436777148996814
"1260",-0.0161030692367135
"1261",-0.0209106768106775
"1262",0.02540431218425
"1263",-0.00192425928861351
"1264",0.0190840671349655
"1265",0.00442186590624871
"1266",0.00549545043897126
"1267",0.00217047992505481
"1268",-0.0150608729061439
"1269",-0.00205640495499448
"1270",-0.0118823042298608
"1271",0.00833487362169283
"1272",-0.00529540464311307
"1273",-0.00762540728225591
"1274",0.0218268439147842
"1275",0.00380746625135053
"1276",0.0164907874121916
"1277",-0.00531067421868414
"1278",0.000594136074634655
"1279",-0.0131167637377922
"1280",0.0114354653797131
"1281",0.0144623963388586
"1282",-0.00110828946586405
"1283",-0.00371906656016918
"1284",0.00549055670406773
"1285",0.00266022065263449
"1286",-0.000679161291471608
"1287",0.0110745705526405
"1288",0.00880693955447676
"1289",0.000856769106837518
"1290",0.0152064489830064
"1291",-0.00284793973827746
"1292",-0.00205967404106655
"1293",0.0168217226025105
"1294",0.00452325467292614
"1295",-0.00358320658807365
"1296",-0.00403662824863726
"1297",-0.0155365813652066
"1298",0.00050478109060581
"1299",0.000172026240160328
"1300",-0.0144496496399702
"1301",0.0131185422720872
"1302",0.00319283060058506
"1303",0.000308996963988228
"1304",0.00487407721276067
"1305",-0.0263285434825908
"1306",0.00522958553620256
"1307",0.0020679527093499
"1308",0.00352192586856148
"1309",-0.00751062791120916
"1310",0.000431034489432491
"1311",0.0115855219179002
"1312",0.0102228419557502
"1313",-0.00429975566299401
"1314",-0.0129243626387101
"1315",-0.00800267339214145
"1316",-0.0136081335352358
"1317",-0.00378043115053028
"1318",-0.02214844744024
"1319",0.00732883560428199
"1320",-0.0151957076249163
"1321",0.00396863529766822
"1322",-0.0139565875633796
"1323",-0.022910939786323
"1324",0.0167964592589449
"1325",-0.0133514168658797
"1326",0.0181778279566753
"1327",0.00147989933973935
"1328",-0.00211215558573574
"1329",-0.0205601253657717
"1330",0.00291989463259679
"1331",0.0135083400628346
"1332",-0.00699152809060077
"1333",-0.0174691845612198
"1334",-0.0217756053246099
"1335",-0.0340378244535158
"1336",0.0110437567810973
"1337",0.00811416048918634
"1338",-0.0354275074326607
"1339",0.00536172312105343
"1340",0.0134413903963573
"1341",0.0322669508543427
"1342",-0.00460428521352263
"1343",-0.0114156039909625
"1344",-0.00318983767553505
"1345",0.0285553165400767
"1346",-0.00229425341933975
"1347",0.00219741956356589
"1348",0.000258202780987205
"1349",-0.0142094380073772
"1350",0.0131633047301758
"1351",0.0250179730205113
"1352",0.00393688916058821
"1353",0.00576410151303897
"1354",-0.00780607898173269
"1355",-0.0111819927651364
"1356",0.000546823351537107
"1357",0.0132105153678408
"1358",-0.00516995289752842
"1359",-0.0140721284280163
"1360",-0.00812918639119875
"1361",-0.0190845238472139
"1362",-0.0309869002351677
"1363",9.48927373878306e-05
"1364",0.0354030468493383
"1365",-0.00858052910461193
"1366",-0.000864757872190758
"1367",0.0135126554249201
"1368",-0.00941334366659774
"1369",0.0139572842945608
"1370",0.0113504936481101
"1371",0.00804751071429344
"1372",-0.00318571033548398
"1373",0.00168331959688661
"1374",-7.64530865122737e-05
"1375",0.00138162461531977
"1376",-0.0202975006324548
"1377",0.0145739563278706
"1378",0.0099963903390341
"1379",0.00281529045817841
"1380",-0.00313844853915057
"1381",0.0145334020753065
"1382",0.00255759401332334
"1383",0.0152158367841269
"1384",0.00106096250894883
"1385",0.00610467811509441
"1386",-0.0105584538259729
"1387",0.010753384413027
"1388",-0.000907969167053935
"1389",-0.0105721863204478
"1390",-0.00198591423460215
"1391",-0.0121489913753994
"1392",0.00978790492096948
"1393",-0.00206278238940794
"1394",0.0134274849954465
"1395",-0.000679354088941153
"1396",0.0097299612770394
"1397",0.00123005344730309
"1398",-0.00517885783972627
"1399",-0.0180333359874707
"1400",0.00399582393368902
"1401",-0.0145630321361772
"1402",-0.0066112203800337
"1403",-0.00153335067098936
"1404",0.00916503360314902
"1405",-0.00294527027382063
"1406",-0.000910400921797283
"1407",-0.0137882620592347
"1408",0.00628521619849209
"1409",-0.0104846237318021
"1410",-0.00244606926129354
"1411",-0.00667057236926283
"1412",0.0265136771539929
"1413",0.00722070014583842
"1414",0.00507890177746173
"1415",0.00889416682565436
"1416",-0.00448973297789834
"1417",-0.0098453198017241
"1418",0.0192946740338522
"1419",0.000618226688519741
"1420",0.000379316256414519
"1421",-0.00783571204942213
"1422",-0.00521061471715445
"1423",0.00885977093870682
"1424",0.0110262108838848
"1425",-0.0049330185297789
"1426",0.0004821939306483
"1427",-0.00181401236486334
"1428",0.00510989184746613
"1429",0.00922653160762721
"1430",0.00189047354251048
"1431",-0.00551886102100507
"1432",0.00675716938573778
"1433",-0.00836123254841059
"1434",-0.0183903109750352
"1435",-0.00199501621108134
"1436",0.00314204577726329
"1437",-0.00215330498160604
"1438",-0.00142780787793662
"1439",-1.85563758163809e-05
"1440",-0.0119347564004002
"1441",-0.0052972608306181
"1442",-0.00485108649662713
"1443",-0.0080060615626758
"1444",0.017478123922757
"1445",-0.00277253488019724
"1446",-0.00627593394631276
"1447",-0.0053872952407561
"1448",-0.0254882694839518
"1449",-0.000645605179440345
"1450",0.0129108481406108
"1451",-0.00959595316474537
"1452",0.00968610474825482
"1453",0.00135129938326184
"1454",0.0159418534962041
"1455",0.0144074521865223
"1456",0.00116586098313487
"1457",0.00176801679602523
"1458",-0.00551982765115078
"1459",0.0101305758028891
"1460",0.00469435132011053
"1461",-0.00397023160448295
"1462",0.00716950588376708
"1463",0.00536039927330201
"1464",0.00150797822166293
"1465",0.00769365455773041
"1466",0.00335423748797758
"1467",0.00476718772524087
"1468",-0.0120337814053526
"1469",0.0130480867982108
"1470",0.00257016416183831
"1471",0.000478554773743589
"1472",-0.00433327918040849
"1473",0.00454257490107501
"1474",0.00268705004334446
"1475",0.00116810607287832
"1476",0.00128572211593792
"1477",0.0105799177415111
"1478",-0.0140002523833136
"1479",0.00997201985749108
"1480",-0.0173589804442109
"1481",-0.00378345612959841
"1482",0.0170860442752172
"1483",0.0113929577229399
"1484",-0.000610307167752566
"1485",0.00188839747640301
"1486",0.00491536468174036
"1487",-0.000559867979095685
"1488",0.00935980867338593
"1489",0.000248476637251471
"1490",0.00452532499928893
"1491",-0.00531141585637851
"1492",-0.000798283155234003
"1493",0.00321815849108464
"1494",-0.00114856629435511
"1495",-0.00558265965365834
"1496",0.00960551115606112
"1497",0.00219478510846827
"1498",-0.0151043152784212
"1499",0.009360117051461
"1500",-0.00234629295277688
"1501",-0.00474404550422047
"1502",0.0143771937430284
"1503",0.00617541572751801
"1504",0.0053447663734385
"1505",0.00643702709952265
"1506",-0.00122774032385031
"1507",0.00305529300912522
"1508",0.00155500509904893
"1509",0.00252103798550163
"1510",0.008729544340083
"1511",0.00666694934045076
"1512",0.00110684963928609
"1513",-0.00310889647639989
"1514",-0.032881104300901
"1515",-0.00723194814940964
"1516",-0.0107000472007712
"1517",-0.0347994810580943
"1518",0.0177815578428344
"1519",-0.00173854467320744
"1520",0.0183904601285025
"1521",0.00541830855007941
"1522",0.00636583391605683
"1523",-0.0091901223427433
"1524",-0.0296989510417767
"1525",0.0114215042240078
"1526",-0.0101565875875709
"1527",0.0100975602401832
"1528",0.00835304956444105
"1529",0.0136684598505781
"1530",0.00583810463679679
"1531",-0.000327274922466536
"1532",-0.0101061972983381
"1533",-0.00745290094018269
"1534",-0.000222109220199052
"1535",0.00171130407474607
"1536",-0.0183274173792407
"1537",0.0128913652206961
"1538",0.0152557371764672
"1539",-0.00567913349380245
"1540",-0.00211763416153321
"1541",0.0121673888627898
"1542",-0.00138753372348521
"1543",0.00191095692308352
"1544",-0.00740511119356757
"1545",-0.0120525517167644
"1546",0.0117164932162463
"1547",-0.00551471451741747
"1548",0.00847162736562979
"1549",-0.0138352935852533
"1550",0.00183786999347291
"1551",-0.00259976139634066
"1552",0.00031068735429951
"1553",-0.011091906852676
"1554",0.00947879986480515
"1555",-0.00141581090560461
"1556",-0.0045665543008484
"1557",0.00645776894175043
"1558",0.0167637935503588
"1559",-0.000230836263093614
"1560",0.00711980095510434
"1561",-0.00460655610698968
"1562",-0.0080345395336332
"1563",0.00457430851350171
"1564",-0.0107100113615664
"1565",-0.000385464489476739
"1566",-0.00270241978245078
"1567",-0.00680586589238974
"1568",0.00879536899745759
"1569",0.0121260793092635
"1570",0.00491990323030933
"1571",-0.00113277320138039
"1572",-0.0130704161178521
"1573",0.00513966572472491
"1574",0.00780992220203647
"1575",-0.00239079514164686
"1576",0.0125695536134485
"1577",0.00692484234843516
"1578",0.0028016918843905
"1579",0.00209612969068917
"1580",0.0010914022225057
"1581",0.000685736153361205
"1582",-0.0133264413245149
"1583",0.00283739752697443
"1584",-0.00542593075028019
"1585",-0.00325943665911765
"1586",0.00612125615148962
"1587",0.00923629206762122
"1588",0.00867658819990069
"1589",-0.00442716645177121
"1590",0.00181246384708977
"1591",0.00316811997095545
"1592",-0.00638567835914738
"1593",-0.00740647949722639
"1594",0.000566453506482212
"1595",-0.0141378764547326
"1596",0.0057499728893049
"1597",0.0134772317854503
"1598",0.00308277603758622
"1599",0.000842171504655376
"1600",0.000325449600269145
"1601",0.00320394605562768
"1602",-0.00475920434823873
"1603",0.00703270067298511
"1604",-0.0016920619545413
"1605",-0.0120780119438457
"1606",-0.0026396448976147
"1607",0.011358567354427
"1608",-0.00285850064491822
"1609",-0.0110045331789728
"1610",0.00530249494982016
"1611",0.00461039649431161
"1612",-0.0106865110552912
"1613",0.00493858999710817
"1614",-0.00679544208502847
"1615",-0.00965288873347969
"1616",-0.0218054605580233
"1617",0.00352379806812309
"1618",0.000275507125360619
"1619",-0.0221221870039132
"1620",0.000287581857962849
"1621",0.00192108070464947
"1622",-0.00269414456286388
"1623",-0.00473530119853471
"1624",0.00533462757364855
"1625",0.00881047201192775
"1626",-0.0300709269885253
"1627",-0.00078981933162936
"1628",0.00294792421674384
"1629",-0.0268055819215522
"1630",-0.0168842039684138
"1631",-0.0571509082820825
"1632",0.028750698645104
"1633",0.01712124335823
"1634",-0.0032247981752338
"1635",0.0299190231620852
"1636",-0.00375119237981192
"1637",0.00120367671554256
"1638",-0.00199220835286162
"1639",-0.0172179356560829
"1640",0.00683352095176648
"1641",0.0251990364642847
"1642",-0.00174876899522136
"1643",-0.00543381159495304
"1644",-0.0172260679692418
"1645",-0.000605483146232544
"1646",-0.00735876161880444
"1647",-0.0206350760348668
"1648",0.00468994616210949
"1649",-0.00269223140663666
"1650",-0.00353966428164476
"1651",0.0142394780425814
"1652",-0.0220975983913991
"1653",0.0367944368305642
"1654",-0.000472176679416236
"1655",-0.00947132838911457
"1656",0.00946494609614756
"1657",0.00584821177765171
"1658",0.0245251499080794
"1659",0.000909718266695059
"1660",-0.000451661410117765
"1661",0.0146822963815216
"1662",0.0146621671396696
"1663",-0.00506687110390303
"1664",0.000790941049713112
"1665",0.00189932435141227
"1666",-0.00113313093758016
"1667",0.0115958969403671
"1668",-0.0108122120139225
"1669",-0.00123005695477563
"1670",-0.0196125932252134
"1671",-0.0154767872805026
"1672",0.0108514321332995
"1673",-0.0164975711405697
"1674",-0.017886887709591
"1675",0.00477404037928775
"1676",-0.0042687524343652
"1677",-0.0101481302665984
"1678",0.0165920963097133
"1679",0.0204505847491809
"1680",0.000448081657930643
"1681",0.0079696016870896
"1682",0.00965039662312783
"1683",-0.0220098812088398
"1684",-0.0157720650476803
"1685",-0.000342887625116362
"1686",-0.0114331487350876
"1687",-0.0258666243563841
"1688",-0.0150038181487453
"1689",-0.025723692369449
"1690",-0.00114732092568293
"1691",0.0291169585050506
"1692",0.000767544263246656
"1693",-0.0183070087708446
"1694",-0.01028599231004
"1695",0.00865386072437602
"1696",-0.021011849402222
"1697",-0.000931817459029816
"1698",0.0204179369055035
"1699",0.00797747466007692
"1700",-0.00212562951935613
"1701",0.0259737487810812
"1702",0.0114301964975008
"1703",0.000182765238560201
"1704",-0.0109330869916411
"1705",0.00731727418659034
"1706",0.0166556840000167
"1707",0.00609501474218987
"1708",-0.00208315381379709
"1709",0.00544548990357718
"1710",-0.00645979294613941
"1711",-0.0265746854827595
"1712",-0.00984315369334254
"1713",-0.0192006436620771
"1714",-0.00199152478591547
"1715",-0.00887054091660389
"1716",0.000528419728527574
"1717",0.00795423018738806
"1718",0.0180968978637779
"1719",0.00828095928680028
"1720",-0.00567078480581085
"1721",-0.016306206802871
"1722",-0.0441755028424327
"1723",-0.0136919083144438
"1724",0.00740407636000473
"1725",0.0150178782325874
"1726",-0.0162302502797322
"1727",-0.0171148570776358
"1728",-0.0200756069579864
"1729",-0.0360670480228249
"1730",0.0213240329873159
"1731",0.0082786762934175
"1732",-0.036251142350471
"1733",-0.058727374234314
"1734",0.0242776754473946
"1735",0.0272430614120225
"1736",0.045892383555354
"1737",-0.0392346933368177
"1738",0.0272352974436751
"1739",-0.00650853236080184
"1740",0.0196524502808684
"1741",-0.00704393614521859
"1742",0.0206256987948938
"1743",-0.00679364424545703
"1744",-0.0430151961692689
"1745",0.00512390260231577
"1746",-0.0138416387710736
"1747",-0.000808319516739431
"1748",-0.000583328488803048
"1749",0.0359807931003759
"1750",0.00183704355217174
"1751",-0.00142435216068471
"1752",0.00918506390251395
"1753",-0.0321552168630008
"1754",0.0242671456939672
"1755",-0.0100524548640992
"1756",0.0255308217649679
"1757",-0.00597113882496636
"1758",0.0125739583401483
"1759",-0.00840446215503299
"1760",-0.021529340768927
"1761",-0.0409469129655067
"1762",-0.00432827730164664
"1763",-0.00138363459338109
"1764",0.0185310970951535
"1765",-0.0313832296620991
"1766",-0.0189151973008856
"1767",0.00874965940428662
"1768",0.0160467326820388
"1769",-0.0317792829423125
"1770",-0.0187959541177722
"1771",-0.037206367590537
"1772",0.0120868811363746
"1773",0.027689030832474
"1774",0.0196501848982118
"1775",0.00336308050829182
"1776",0.0152649966933165
"1777",-0.00437810360965063
"1778",-0.00901795485526602
"1779",0.014063585703501
"1780",-0.0251155962072689
"1781",0.0143488107123622
"1782",0.0410634951537014
"1783",0.013611343848372
"1784",-0.00826712787802464
"1785",0.0128655077426254
"1786",-0.0177262476668103
"1787",-0.0155487715680955
"1788",-0.0118123055521329
"1789",0.0241830132188543
"1790",-0.0256503531472072
"1791",0.00777716422092745
"1792",0.0125879384345975
"1793",0.0167164347905544
"1794",0.00826991908028685
"1795",0.0208311618544794
"1796",-0.0151726161388082
"1797",0.00223165924635715
"1798",-0.00520222686912941
"1799",0.0244319947193343
"1800",0.0161681897535457
"1801",-0.00227907759287849
"1802",-0.00928003702085789
"1803",0.0229788813790197
"1804",0.0114702755770608
"1805",-0.0146989701072302
"1806",-0.0229795245164999
"1807",0.000767353970342555
"1808",0.0127719248074341
"1809",0.00950579586820854
"1810",0.0143391070348242
"1811",0.0021515101137064
"1812",0.00598547563562857
"1813",-0.00314540805458829
"1814",-0.0214815132628452
"1815",0.00696790902511779
"1816",-0.00216227282435089
"1817",-0.0238979056089823
"1818",0.0177483893371342
"1819",-0.0143988000760453
"1820",0.023406165768054
"1821",0.0197297678771182
"1822",0.0119723020860123
"1823",-0.0124695353483757
"1824",0.0162306102512444
"1825",-0.00421728729519266
"1826",0.00256611745829094
"1827",-0.0216383435852459
"1828",-0.0103138927908066
"1829",0.00492567425656532
"1830",-0.0195344676037505
"1831",0.00616520706170132
"1832",0.0217225823657738
"1833",0.000206871708178014
"1834",0.00544882946624625
"1835",-0.0244443530656842
"1836",-0.0138052361963936
"1837",-0.00651468102119424
"1838",0.000934330019919827
"1839",-0.00230774755794005
"1840",-0.000958797785715504
"1841",-0.0180911115662088
"1842",-0.000439264163865083
"1843",-2.27258093241645e-05
"1844",-0.0144362766847381
"1845",-0.00240846232683012
"1846",-0.000107862398501801
"1847",0.0114300967085619
"1848",-0.0225637482990892
"1849",0.00157257217971374
"1850",0.00406010750690378
"1851",-0.00376455326277103
"1852",-0.00404421913079922
"1853",-0.0217859783078032
"1854",-0.00306905611741826
"1855",0.011436973284475
"1856",-0.00891869445543136
"1857",0.0278030797594511
"1858",0.0120491290202116
"1859",0.0221715355398953
"1860",-0.0260690970057373
"1861",0.00193146069963834
"1862",-0.0148312643738109
"1863",0.016521115685002
"1864",0.000483386476893166
"1865",-0.0238236801465161
"1866",-0.0195787594479704
"1867",-0.000432699248725577
"1868",0.0234151165979322
"1869",-0.0145581574975058
"1870",0.000889333614281895
"1871",0.0158039140669617
"1872",-0.00672569184450289
"1873",-0.0198108071600611
"1874",-0.00607547505112294
"1875",0.00674112855895448
"1876",0.013094258917751
"1877",-0.0225753698736391
"1878",-0.00175786120902632
"1879",-0.00719316336407338
"1880",-0.00664497826001842
"1881",0.0185942392727592
"1882",-0.00802078350047974
"1883",-0.00461469037953766
"1884",-0.00340534542126925
"1885",0.028438931567174
"1886",-0.0193701109190751
"1887",-0.0149572376788019
"1888",0.00672445524208243
"1889",-0.0156059644815407
"1890",-0.0259741724213765
"1891",0.0381824578414998
"1892",-0.0206153480233233
"1893",0.000662760042213328
"1894",-0.0251892218999226
"1895",0.0123766494909914
"1896",-0.051982052012356
"1897",0.00344797125871832
"1898",-0.0214057949927602
"1899",0.0457975704247984
"1900",0.0168870313489995
"1901",-0.000616264259915233
"1902",-0.012076359553749
"1903",-0.00526536509978826
"1904",-0.0175945762837983
"1905",-0.0365321762720008
"1906",0.0125382033127188
"1907",-0.0221853826149614
"1908",-0.0272965830981651
"1909",-0.0478054110709163
"1910",-0.0216940099485585
"1911",-0.0838166596173053
"1912",0.00676232539474064
"1913",-0.0736313056493803
"1914",0.128646493729859
"1915",-0.000826442005183559
"1916",-0.100070789734596
"1917",0.0338556677438984
"1918",0.0363225155733335
"1919",0.0310745221996447
"1920",-0.0730712254200405
"1921",-0.019910591695024
"1922",-0.0782251183961629
"1923",-0.0768781774669129
"1924",0.0491052527699782
"1925",0.0573638837326014
"1926",0.0798833495528832
"1927",-0.0365171427024222
"1928",0.0490361590662785
"1929",0.0598918851934087
"1930",-0.0614303470353148
"1931",-0.0338901750466905
"1932",0.0419408223238573
"1933",-0.0302236170836743
"1934",-0.0160153939657741
"1935",-0.0440296250063952
"1936",0.0111373476741639
"1937",0.00421822234990277
"1938",-0.0178541218059642
"1939",-0.00963402064320729
"1940",-0.0561117788036372
"1941",0.0257558543810781
"1942",0.0353589185650751
"1943",-0.0174191692135937
"1944",0.0143480062020389
"1945",0.00695979009122638
"1946",-0.00884327993267409
"1947",-0.0499921382600892
"1948",0.0152180001860396
"1949",-0.0129844967194757
"1950",-0.00363198062597281
"1951",0.0326166200780742
"1952",0.00719012680310449
"1953",0.0201036731451465
"1954",0.0174609496162672
"1955",-0.0431674964705042
"1956",0.0404319360385106
"1957",-0.0218563801579732
"1958",0.0118052094409027
"1959",0.000274274813155451
"1960",-0.00509229368564412
"1961",0.0169804751318754
"1962",-0.0259367290988601
"1963",0.0108599331913606
"1964",0.0125521676568638
"1965",0.00962772299986359
"1966",0.00521585070553243
"1967",0.0192150683265
"1968",0.000331029447521836
"1969",0.0136588595213381
"1970",-0.0312864970556488
"1971",-0.00684187736944608
"1972",-0.0490170851913634
"1973",0.00645238570187701
"1974",-0.0289735380351548
"1975",0.0271412302812353
"1976",-0.000195644465719624
"1977",-0.0156526649620075
"1978",-0.0224607163442707
"1979",0.0110672866647459
"1980",-0.0284958049603059
"1981",-0.00683605912842644
"1982",0.0472965378540291
"1983",-0.00144115516116017
"1984",0.0174271109970032
"1985",-0.0303154998178465
"1986",-0.020587540375546
"1987",-0.00523318458620281
"1988",0.0242452367072525
"1989",-0.00806747072709957
"1990",0.00561738677959855
"1991",-0.0152130037807767
"1992",-0.00102761730301815
"1993",-0.0231551111778714
"1994",0.0056398029977931
"1995",0.00718063410239811
"1996",-0.0177781877911221
"1997",-0.00965613596636228
"1998",0.0031049097136373
"1999",-0.0161761132220413
"2000",-0.00576347022946244
"2001",-0.00682335680454393
"2002",0.020788064800648
"2003",-0.00415281314492066
"2004",0.0189168149889776
"2005",-0.0296675684476346
"2006",-0.0106611839203641
"2007",0.00718382075506518
"2008",0.0129074329108905
"2009",-0.0275626837497365
"2010",-0.0151687360064123
"2011",-0.00994329387737913
"2012",0.0263449987932356
"2013",-0.0300048506458142
"2014",0.0327976464994153
"2015",0.0237256949102314
"2016",0.0252288180603175
"2017",0.00528418403778286
"2018",0.000130766816798911
"2019",0.034430546854292
"2020",0.0263809649025859
"2021",0.0070745324822834
"2022",0.0101137432923144
"2023",-0.00276139553188059
"2024",-0.043363029635902
"2025",-0.0203179967963454
"2026",0.0257242347011015
"2027",0.0405730406041691
"2028",0.0056331381431507
"2029",-0.000469220921424096
"2030",0.00195964164011908
"2031",-0.0210462539906562
"2032",0.0320472548019408
"2033",0.00492956241239995
"2034",0.00353995201342183
"2035",-0.00655879542625204
"2036",-0.00973397333486403
"2037",-0.0038505646482383
"2038",0.0161304395707838
"2039",0.00322339065427801
"2040",-0.0209415521780736
"2041",-0.000915287777365492
"2042",0.0114289696593453
"2043",-0.01132053657751
"2044",0.00366774304077833
"2045",-0.0256656581659556
"2046",0.0312794476038745
"2047",0.010756110918348
"2048",0.0451143573747421
"2049",0.0105767625708957
"2050",0.00567993508319375
"2051",-0.0168212356511983
"2052",0.00374257840268655
"2053",-0.0297953421699004
"2054",0.0217745129063829
"2055",-0.0252000287765464
"2056",0.0230540199252927
"2057",0.00740635074167351
"2058",-0.0054985600199462
"2059",-0.00632783847286511
"2060",0.00809610535241845
"2061",0.000871647185261004
"2062",0.0102217458539133
"2063",0.00306412532015621
"2064",0.00258712159912822
"2065",0.0161401624622552
"2066",0.00113905208144782
"2067",0.00102841272479903
"2068",-0.0038455475796173
"2069",0.00609561133406711
"2070",0.0112073645878787
"2071",-0.00937610181319659
"2072",0.0202351601800119
"2073",0.00387717111707531
"2074",0.0104591185000249
"2075",-0.00392124295505702
"2076",-0.0344472654139247
"2077",0.00900000089502662
"2078",-0.0128883500713872
"2079",0.00848009103257752
"2080",0.00381221781846097
"2081",-0.022794915181521
"2082",0.000853587613836915
"2083",0.0189992708927003
"2084",0.00761415377034425
"2085",-0.0124640616468978
"2086",0.0156527574154719
"2087",-0.00157153192090842
"2088",-0.00462123997680752
"2089",-0.00368636031994019
"2090",-0.00894694572871657
"2091",-0.00361231212708368
"2092",-0.0229084319758721
"2093",-0.0166022707525784
"2094",-0.00161474144830631
"2095",-0.0232832909645415
"2096",0.0187688180546646
"2097",-0.00253611211820015
"2098",0.00676401101837865
"2099",0.00690075516003752
"2100",0.0261386689954559
"2101",0.00556377359541571
"2102",0.00232472409092122
"2103",0.0128912712062696
"2104",0.00841659284404894
"2105",0.0020124953655003
"2106",0.000247246694335068
"2107",0.00704763801773289
"2108",0.0141163853238204
"2109",0.00765275091650253
"2110",0.00152354744640171
"2111",-0.00989214814924289
"2112",0.00831638329041162
"2113",-0.000783588562089932
"2114",0.0129596829398011
"2115",0.00439583773095187
"2116",-0.0141102383476071
"2117",0.00885769269647874
"2118",0.00531417640078313
"2119",-0.0249394152325921
"2120",7.37133079180552e-05
"2121",-0.00677266695371781
"2122",0.0161320959468734
"2123",-0.0118053975294412
"2124",0.023916326018723
"2125",-0.00533229880060837
"2126",0.0108003317067649
"2127",-0.0117125608224473
"2128",0.0052546228044692
"2129",-0.00370018613009915
"2130",0.00314293357708362
"2131",-0.019765261023819
"2132",-0.00743961414652361
"2133",-0.00748469033297461
"2134",0.00942389734959548
"2135",0.0019037552021608
"2136",-0.00695566465392172
"2137",0.0196494814528405
"2138",-0.00846565902454799
"2139",-0.0173635004519772
"2140",-0.0016393709774194
"2141",-0.00116955940261132
"2142",0.00864806693950104
"2143",-8.51534892154504e-05
"2144",0.0113885356959953
"2145",-0.0294008479731334
"2146",-0.0217262902161321
"2147",0.00128400982862065
"2148",0.00643939948401329
"2149",-0.0151944272974607
"2150",-0.0242276602145104
"2151",-0.00848479501118238
"2152",0.00500314458355966
"2153",0.0160019803105182
"2154",0.00214292241167158
"2155",0.0114708161452572
"2156",0.00396836945250545
"2157",-0.00786309418466313
"2158",0.0108650183336376
"2159",-0.00350127223269947
"2160",0.00536876894929073
"2161",0.0084101086604651
"2162",0.000273650221996213
"2163",-0.00559733667927187
"2164",-0.00725717439225892
"2165",0.00958771652838841
"2166",-0.0168756081017518
"2167",-0.00748764903426125
"2168",-0.00738544117856677
"2169",0.0139681380520829
"2170",-0.0159195795608547
"2171",0.00082869326632995
"2172",-0.00718587787744074
"2173",-0.00108635378929289
"2174",-0.00382878703287393
"2175",0.00203085359884803
"2176",-0.000171946376080534
"2177",-0.00527590462812721
"2178",-0.0010377631372398
"2179",-0.00738762753646593
"2180",-0.00398272352795814
"2181",-0.00813098336935614
"2182",-0.0146349566921371
"2183",0.00119301859749665
"2184",-0.011379497229651
"2185",0.00489622093200293
"2186",-0.00448628109096116
"2187",-0.0226150552495534
"2188",0.0350500762191679
"2189",0.0209938793644389
"2190",0.00114185855692472
"2191",0.0335505883865652
"2192",0.00173265420648772
"2193",0.0104557259171738
"2194",-0.00248380918837743
"2195",-0.0132015118585356
"2196",-0.0125538934659675
"2197",0.0166474763260789
"2198",-0.00393539255684683
"2199",-0.000508557910277929
"2200",0.0153234775422622
"2201",-0.00224009187773877
"2202",-0.00300580715394805
"2203",-0.00236405405131279
"2204",0.0129059934406115
"2205",0.0117351823953422
"2206",-0.0047501337184892
"2207",0.00590955413822414
"2208",0.00119083399755215
"2209",-0.00908169842960316
"2210",0.00895066688357105
"2211",0.00416276781845237
"2212",0.0124927328529481
"2213",0.000772955196350011
"2214",0.0100794173644179
"2215",0.0135486556173223
"2216",-0.0106525781466651
"2217",0.0157541499959981
"2218",0.00767632482280334
"2219",-0.00919988816798245
"2220",-0.00816861791366197
"2221",-0.00532073380588027
"2222",0.0119007060191478
"2223",-0.0159099177150406
"2224",-0.00677144515265571
"2225",-0.0196549798651375
"2226",-0.00957207416030847
"2227",0.00729974317031079
"2228",-0.0145421854997743
"2229",-0.00278930909343966
"2230",0.0156895839164362
"2231",0.00312824974822767
"2232",-0.00502527374482042
"2233",-0.0214222195271132
"2234",-0.00988293982071387
"2235",-0.0016321167866078
"2236",0.00218688297821412
"2237",0.00975419693229806
"2238",-0.00978815336619654
"2239",0.00192238163055958
"2240",0.02174630336674
"2241",0.000110536322347699
"2242",-0.0174493364289336
"2243",0.0229826162757032
"2244",-0.00261953130332859
"2245",-0.0129559342224974
"2246",-0.00478989220863379
"2247",0.00301314698346289
"2248",0.00538754140510633
"2249",0.00419618297384972
"2250",0.00325156781869662
"2251",-0.00888382088354955
"2252",0.0145652164327412
"2253",0.017953608256466
"2254",-0.00316467923397212
"2255",-0.00210090936156959
"2256",0.00857077169367226
"2257",0.00642827215209962
"2258",0.00269825097449949
"2259",-0.000863074837407218
"2260",0.00989650246754703
"2261",-0.0070331077632817
"2262",0.00861508619863383
"2263",-0.00164530965766563
"2264",0.00484379731265161
"2265",0.000168058400690008
"2266",0.0152073181078265
"2267",-0.000610497470910687
"2268",0.0138255076456675
"2269",-0.000786360264990904
"2270",0.00656801762372794
"2271",0.00418302587509256
"2272",0.00633732921401453
"2273",-0.00492331611089547
"2274",0.00478269880067295
"2275",-0.00963909094731008
"2276",0.00347270029720281
"2277",0.00540269432294593
"2278",-0.00639366444236611
"2279",0.00268749467150453
"2280",0.00783923612544157
"2281",-0.0101221345784479
"2282",-0.0183708628245975
"2283",0.00130729064656343
"2284",0.0152719921228304
"2285",-0.00905747984441962
"2286",3.06690452243075e-05
"2287",0.0187457069270831
"2288",0.000922611054543943
"2289",-0.0202409619763335
"2290",0.00956906135077773
"2291",-0.0311997978007765
"2292",-0.026456961851399
"2293",0.0137500967228457
"2294",-0.013363797464887
"2295",0.000782871246946648
"2296",0.0160260351449377
"2297",-0.0121528812831331
"2298",-0.0172551780217223
"2299",-0.00710885381964399
"2300",-0.00358444931753521
"2301",-0.0138105568021167
"2302",-0.0207675195324777
"2303",0.000363698361683262
"2304",-0.0232102060288666
"2305",-0.000954143030928556
"2306",0.0125978448889619
"2307",0.00987190657333503
"2308",0.00220582472411923
"2309",-0.000477137185990628
"2310",-0.0114166797230935
"2311",0.0233896241588649
"2312",-0.000539083571006849
"2313",-0.0353878594288686
"2314",-0.00102472149353616
"2315",-0.00931709203803077
"2316",0.0075212988412181
"2317",0.01120001494255
"2318",0.0138913408577848
"2319",0.000307273857395707
"2320",0.0153005734446037
"2321",-0.00550606494817973
"2322",-0.00320520329475915
"2323",0.0199768272236156
"2324",-0.00882563253490343
"2325",-0.0154559796403433
"2326",-0.0012154879635311
"2327",-0.0142755719840508
"2328",-0.00752274828288968
"2329",-0.0100526827452194
"2330",-0.0127185658810829
"2331",-0.0156068827957112
"2332",0.00312166919162937
"2333",0.00708691293142039
"2334",0.0122913674172409
"2335",-0.00678611042425015
"2336",0.0229198358601161
"2337",0.000220644165727535
"2338",-0.00408398913101493
"2339",-0.0038666239787899
"2340",0.018944176259601
"2341",-0.0163608750959163
"2342",-0.018878935422447
"2343",-0.00994723775557027
"2344",-0.00350263055120159
"2345",-0.00467722612612853
"2346",0.0189713927938637
"2347",0.00544107745399725
"2348",0.000283687945165312
"2349",0.0226577350455877
"2350",-0.00491088444533894
"2351",-0.0137601030072112
"2352",0.00139984377548785
"2353",0.00993066112878971
"2354",-0.015541832150161
"2355",0.0131063167206413
"2356",0.00474899918291172
"2357",-0.00413081882952415
"2358",-0.00343398106534476
"2359",-0.0239543046853754
"2360",-0.00802540659187123
"2361",0.0041711432249727
"2362",-0.00314482718653952
"2363",-0.0022350967677669
"2364",0.0101684981553056
"2365",0.0104216616092092
"2366",-0.0171971947919829
"2367",-0.00580279436279696
"2368",-0.00859659971102644
"2369",-0.0128244754737556
"2370",0.00553395273076518
"2371",0.00959913219048047
"2372",0.0116326220911906
"2373",-0.0300411848227382
"2374",0.00832889528948844
"2375",0.00983562214604117
"2376",0.00520961302881506
"2377",0.0180586111865804
"2378",-0.00452908525607754
"2379",-0.0168249827674236
"2380",0.00710027682075332
"2381",0.00828640864243457
"2382",0.00470273756607131
"2383",-0.0033243280321722
"2384",0.0163590440100192
"2385",-0.00464169493145938
"2386",0.00869878186734674
"2387",-0.00252639629567408
"2388",-0.00403193076534869
"2389",-0.00962658701569108
"2390",0.0129052398094016
"2391",-0.00786079286393448
"2392",0.00511358697642539
"2393",-0.0208301098855284
"2394",0.000554390546173344
"2395",-0.00874932216989155
"2396",0.0119611424948776
"2397",0.0141433603637697
"2398",0.00184554282933824
"2399",-0.0078552762275379
"2400",-0.0178365825768561
"2401",-0.00236758344014021
"2402",0.0172334947159696
"2403",-0.0127096153913335
"2404",0.00499729448447717
"2405",0.0038575982943474
"2406",-0.0121153634049689
"2407",-0.00400221933292588
"2408",0.00544589501146309
"2409",-0.00443470482765385
"2410",-0.00401423210275453
"2411",-0.000220089259310718
"2412",-0.00420320576659172
"2413",-0.00420861540208772
"2414",-0.00942883067152245
"2415",-0.000224100796495819
"2416",0.0163145425931441
"2417",0.0225890874917756
"2418",0.00806340549054507
"2419",-0.00212881170251311
"2420",0.0153937343017274
"2421",0.00396642518435453
"2422",-0.0110254441199213
"2423",0.00539287988515369
"2424",-0.00446058891926526
"2425",0.00297985580347504
"2426",0.0215352308505965
"2427",0.000816876012588175
"2428",0.00683097212095252
"2429",-0.010229416716836
"2430",0.00373190633423892
"2431",-0.00345499071096711
"2432",0.00893539883282557
"2433",-0.0157303895267757
"2434",0.00594092111615918
"2435",0.0127806796830265
"2436",0.00228873439580912
"2437",0.00248774714672795
"2438",-0.00262424107295978
"2439",0.00938591314881521
"2440",0.00473303150576587
"2441",-0.00379814145620117
"2442",0.0102822334863699
"2443",0.00499086786457426
"2444",0.000587482212305979
"2445",0.00157230995818924
"2446",-0.000774773417543173
"2447",-0.00509522718137845
"2448",0.00848871428571218
"2449",-0.000474616314738441
"2450",-0.00455894207920782
"2451",0.00334378114181444
"2452",-0.00204701566907062
"2453",0.00572111741396686
"2454",-0.0101948514453332
"2455",0.0143601274681666
"2456",-0.000120647768985016
"2457",0.0139638474159769
"2458",0.00206382810581918
"2459",0.000561143019861987
"2460",0.00290857587979776
"2461",0.00867531065034566
"2462",-0.00795486114473487
"2463",-0.0016998024576429
"2464",0.00306400785856553
"2465",0.00566246261301551
"2466",-0.0103860251435988
"2467",-0.0177802773309237
"2468",0.00692551577418321
"2469",0.0131063475053006
"2470",-0.00717096683863883
"2471",0.00757980198694153
"2472",-0.0107822711658825
"2473",-0.0105041490039754
"2474",0.00377276165862561
"2475",0.0174921450384193
"2476",-0.0022291510999537
"2477",0.00836321859102362
"2478",0.00540573555278456
"2479",0.00378894866983437
"2480",2.1186216248914e-05
"2481",0.00276095698090817
"2482",0.0131808689618405
"2483",0.00351761248566884
"2484",0.00490189439833433
"2485",0.00704634529116177
"2486",-0.000554488806345788
"2487",0.00105737012156126
"2488",-0.0185680491107565
"2489",-0.010317493472277
"2490",-0.0134604126810709
"2491",0.00821900530569675
"2492",0.00986697208555221
"2493",0.0129821089352191
"2494",-0.0218516276273766
"2495",0.00615367037345216
"2496",0.0072468651640305
"2497",-0.0147165346661193
"2498",-0.00262655737217177
"2499",0.00544746362897452
"2500",-0.0143459180672512
"2501",-0.0166061172429703
"2502",-0.0778278190126853
"2503",-0.099518749502252
"2504",0.0642751930027003
"2505",-0.00838849695772836
"2506",0.0238740553720591
"2507",0.0444460030813554
"2508",-0.00813083132913928
"2509",-0.00833799763691889
"2510",0.00400858349117961
"2511",0.0005480314730546
"2512",-0.00894588123554918
"2513",0.0185054514656038
"2514",0.00379148465976709
"2515",-0.00780604425670095
"2516",-0.00333262035018045
"2517",-0.0147520704929747
"2518",-0.00895208051031204
"2519",0.00177306065930249
"2520",0.0142013801936196
"2521",-0.000926430903508191
"2522",-0.016359001007916
"2523",0.00722479525493913
"2524",0.00251875898101073
"2525",-0.00643363336674962
"2526",-0.00590119914993714
"2527",-0.010553616794307
"2528",0.0115455440227725
"2529",0.00542026117210703
"2530",0.000546350747007374
"2531",-0.00178267995821813
"2532",-0.00840943366642222
"2533",0.00744546346294861
"2534",0.0141633370358134
"2535",0.0159546880311874
"2536",-0.0105108252585646
"2537",-0.00384861065432318
"2538",0.00380190787082935
"2539",0.00135349595945211
"2540",-0.00970153365343052
"2541",-0.0111291165719134
"2542",-0.012447075625424
"2543",-0.000844187218489445
"2544",0.0109311687750688
"2545",-0.00727014610391308
"2546",-0.00496488252194194
"2547",-0.0122642759992679
"2548",0.00180836294729048
"2549",-0.00173498730063493
"2550",0.011356987865093
"2551",-0.00263925866588366
"2552",-0.0014800618989792
"2553",0.017808623894215
"2554",0.00110853523799026
"2555",-0.0163950896994951
"2556",-0.01119153388266
"2557",-0.0105629583108717
"2558",0.0071158000268694
"2559",0.000847556569859798
"2560",-0.00184343176205015
"2561",0.00543449596446077
"2562",-0.0062836170521452
"2563",0.0129655908969379
"2564",0.00217297704334385
"2565",-0.0149539150564024
"2566",-0.00874059033973129
"2567",0.00184844082726254
"2568",0.0109704285322314
"2569",0.0161246744788421
"2570",-0.00420671517917182
"2571",0.00927233222962531
"2572",-0.0091148662207603
"2573",0.00567641229983717
"2574",0.0164475623911722
"2575",0.00603546327265647
"2576",0.00544896479390111
"2577",0.0119328295914034
"2578",0.0012375022541633
"2579",0.00958199993629982
"2580",-0.00347479406273354
"2581",0.00442453238397178
"2582",-0.00479221324113421
"2583",-0.0150175051431605
"2584",0.0038888808529256
"2585",-0.00425059303898578
"2586",0.00289004070077503
"2587",-0.00654951527214909
"2588",0.00806112589009356
"2589",-0.000639248730196051
"2590",0.0100641711974463
"2591",-0.00797360238225053
"2592",0.00496497192043321
"2593",-0.00821885911579567
"2594",-0.0125801082783319
"2595",-0.00828534572657436
"2596",0.0122028364872104
"2597",-0.00912925203910753
"2598",-0.0206027482460254
"2599",-0.000471837938474273
"2600",-0.031219505680018
"2601",-0.022857127728285
"2602",-0.0160570003854428
"2603",0.0081959195017145
"2604",-0.00756008020488963
"2605",-0.00349562104280388
"2606",0.0115576802137314
"2607",0.002493286130135
"2608",-0.0030982662936534
"2609",-0.0120989066231143
"2610",-0.0205668868953266
"2611",-0.0118433265906228
"2612",0.0101123930523546
"2613",-0.0109204303737735
"2614",0.0128242925926942
"2615",0.00563703088956835
"2616",0.00364380890327887
"2617",0.0111000857946451
"2618",0.00429157300843741
"2619",0.00991692441111791
"2620",-0.0109815968652622
"2621",-0.0183015071456465
"2622",-0.0195327581810618
"2623",0.0166310369757925
"2624",0.00500318705664871
"2625",-0.00226024641697187
"2626",-0.0192930310806112
"2627",0.0114817367796851
"2628",-0.0109018116142359
"2629",0.0134857579632977
"2630",0.0215418655815052
"2631",-0.0171882616782373
"2632",0.00276424123056618
"2633",-0.0167683911940602
"2634",-0.021298628494562
"2635",0.0266700523758239
"2636",0.00734719999919875
"2637",0.0108549770991839
"2638",-0.00148345580448161
"2639",-0.0186442932085598
"2640",-0.0147377759361165
"2641",-0.0135803458789487
"2642",0.0145036066842259
"2643",0.00634467533762439
"2644",0.0179751590610531
"2645",-0.00206836275378031
"2646",0.00712838689373019
"2647",-0.0132924936139114
"2648",0.0173037831952954
"2649",-0.0140638883576223
"2650",0.000332727771864327
"2651",-0.0073054928887375
"2652",-0.00242915642556873
"2653",0.0149771078845191
"2654",-0.0102985329489433
"2655",-0.00163300308010328
"2656",0.0216139391183408
"2657",0.0112631713030815
"2658",-0.00959961523289099
"2659",-0.0125910419063944
"2660",-0.0213258544122237
"2661",0.01803349554518
"2662",-0.00208989273853621
"2663",-0.0166885524215532
"2664",0.0152884121788164
"2665",-0.0258174777335229
"2666",-0.00160336604105904
"2667",0.00917425102511693
"2668",-0.00673596045515978
"2669",-0.00934701860834419
"2670",0.00495930263862121
"2671",-0.0106791833387261
"2672",-0.00403602345987508
"2673",0.000989636772594338
"2674",-0.0164485016379956
"2675",0.000736189403808041
"2676",0.0127963498195074
"2677",0.0193449971273507
"2678",-0.00167336508796367
"2679",0.0157309828364829
"2680",0.00556548955354241
"2681",0.00598896447591191
"2682",-0.0142607790057045
"2683",0.0156223768239245
"2684",-0.00604789298116248
"2685",-0.00942544547865687
"2686",0.0115436926844277
"2687",-0.00804092002205437
"2688",-0.00504843089159213
"2689",-0.0163615140979791
"2690",-0.00201576784764512
"2691",-0.00997272040117547
"2692",0.0029410351054846
"2693",0.00995735876894521
"2694",-0.00353396281653318
"2695",0.00458070836014279
"2696",-0.00301925520083834
"2697",-0.00387356090619484
"2698",0.000928254325192057
"2699",0.00894727936378281
"2700",0.0195439762447451
"2701",-0.00907210451246332
"2702",-0.00911404240440028
"2703",0.00318844221320091
"2704",0.00210181597779346
"2705",-0.00865391332739662
"2706",0.010193349761848
"2707",-0.0128234988279594
"2708",0.00863559668157698
"2709",0.00470505671907517
"2710",0.00772539521135496
"2711",0.0197713889526465
"2712",0.00174573199745254
"2713",0.000805711347980242
"2714",0.0131166623451575
"2715",-0.00364227790208638
"2716",-0.00456172878041539
"2717",-0.00542770774052315
"2718",-0.00230116217608511
"2719",0.00355531258767261
"2720",0.00590631875960668
"2721",-0.002311016430947
"2722",0.0119697745458538
"2723",0.00378577159309312
"2724",0.012307966394415
"2725",0.00274439645581381
"2726",-0.00693292449223559
"2727",0.00334454900907399
"2728",0.00652863687881577
"2729",0.0203308129906414
"2730",-0.00338072065557249
"2731",0.0126654701082121
"2732",0.0105310642606513
"2733",-0.00335102923470032
"2734",0.0110984333343458
"2735",0.00477414413357025
"2736",0.00593880228801513
"2737",0.00115001749679866
"2738",0.00385964762505608
"2739",-0.0030099638118708
"2740",-0.00530136174128515
"2741",0.00752387696507029
"2742",-0.00593771945876309
"2743",-0.00663773887721941
"2744",-0.00562405273777777
"2745",0.0162162131321715
"2746",0.0148975673004914
"2747",-0.00404961621673294
"2748",5.91502475613126e-05
"2749",0.0138391814232373
"2750",0.00755501292173033
"2751",0.00360623158601747
"2752",0.00186734959857127
"2753",-0.0110820817689428
"2754",0.00382369643896308
"2755",-0.0111280747088109
"2756",-0.000833162250795105
"2757",0.0238957224247969
"2758",-0.00920062914329023
"2759",-0.00776930692307243
"2760",-0.00396007736768933
"2761",0.00198783975654404
"2762",-0.00589315559098225
"2763",-0.0185728603976019
"2764",-0.00334546725842788
"2765",-0.00827368011759333
"2766",-0.0146641642007266
"2767",-0.000319583069734009
"2768",-0.00937466338133497
"2769",0.0050008769088894
"2770",0.00689080838562361
"2771",-0.0143890928932189
"2772",-0.000921016668297803
"2773",0.0199469124859952
"2774",-0.0062936414426833
"2775",-0.00269361260479251
"2776",-0.00296026069100819
"2777",-0.00694154558636129
"2778",0.00687978020830649
"2779",0.000753277099566851
"2780",-0.00722266313717235
"2781",-0.0185478663282526
"2782",0.00427210639888109
"2783",-0.02659700655793
"2784",0.00582451941412554
"2785",-0.0139265736309646
"2786",-0.000535510216878698
"2787",-0.00924012349318737
"2788",-0.00224413648760358
"2789",-0.0123399257460797
"2790",-0.0114649908852522
"2791",0.0111438261249717
"2792",-0.0293631470966291
"2793",-0.000537675188214237
"2794",0.0112172752071622
"2795",-0.0161664116086211
"2796",0.000941945741544714
"2797",-0.000193857487660765
"2798",-0.00138579033000408
"2799",0.00817605062799576
"2800",-0.00470134943762357
"2801",-0.0057237650288684
"2802",-0.0147858366387315
"2803",-0.0191114016461
"2804",0.0181376298974412
"2805",0.0144661900366341
"2806",0.0168221946519278
"2807",-0.0179640175149647
"2808",0.0170330334798132
"2809",-0.00783810838816734
"2810",0.00285358028226135
"2811",-0.00107430628058491
"2812",0.00125324517343017
"2813",0.0167059529532505
"2814",-0.00559214216047899
"2815",0.0170715939948938
"2816",0.00881908067204762
"2817",-0.00404019474669504
"2818",-0.00761964465623688
"2819",-0.00853041672797605
"2820",0.00887924614051627
"2821",0.0177231104647717
"2822",0.014742988877563
"2823",-0.000961401121198691
"2824",0.01004890605551
"2825",0.00204395209383001
"2826",-0.0029966519109772
"2827",-0.00586489215025043
"2828",-0.0102881565894881
"2829",-0.00700153267742643
"2830",-0.00172835802875504
"2831",-0.0130253439771089
"2832",-0.00153966679900641
"2833",-0.00397390636541406
"2834",-0.00393573939136704
"2835",0.00896758474944015
"2836",-0.0179754325098882
"2837",-0.0181518143549555
"2838",-0.00410209921043769
"2839",-0.015743269972214
"2840",0.0118900772502295
"2841",0.0159992312049768
"2842",0.0072693677588278
"2843",0.00622596609393522
"2844",-0.00890810684466103
"2845",0.00437529752640131
"2846",-0.0124099003614129
"2847",0.016154687574276
"2848",0.0107745241115902
"2849",0.00260518229179052
"2850",0.00828062535346064
"2851",-0.00673951424257968
"2852",0.000214227376400089
"2853",0.00344809493773646
"2854",-0.00295286983442544
"2855",0.0156663940738655
"2856",0.00877422953218243
"2857",-0.00150280661029978
"2858",0.000784354777715102
"2859",-0.00331154302327175
"2860",0.00243564010097774
"2861",-0.00967270424112954
"2862",-0.00245934277072113
"2863",-0.012080031293614
"2864",0.00498554159303577
"2865",-0.0083544688041064
"2866",-0.0164701472185458
"2867",-0.00412253112503524
"2868",-0.00266608189143991
"2869",-0.0119050673090388
"2870",0.0012664483388356
"2871",0.0222404072648059
"2872",0.00294735053870809
"2873",-0.00691347337189985
"2874",0.01297098398451
"2875",0.00324350070700952
"2876",0.0168545935520079
"2877",0.00195348653764871
"2878",0.00845615480335393
"2879",-0.0144740148738167
"2880",0.00340354853486868
"2881",-0.0035760206578308
"2882",0.00526686146118305
"2883",-0.0201579949219157
"2884",0.00409910998459218
"2885",-0.0110182435103603
"2886",-0.00689906598959578
"2887",-0.00158519786669142
"2888",-0.00521055903340617
"2889",0.0109245875493693
"2890",0.00237689499413118
"2891",-0.0129028762856018
"2892",-0.0150087274469293
"2893",-0.00403973179888339
"2894",0.00610222033624908
"2895",0.00648023859191404
"2896",0.012931421995888
"2897",0.0100395493398384
"2898",0.016768818425982
"2899",0.00277429509787819
"2900",-0.000888529409763805
"2901",-0.00578809272162673
"2902",-0.00817348317020983
"2903",0.0109053794048233
"2904",-0.0136537812696007
"2905",-0.00125545904862356
"2906",-0.00928244641366582
"2907",0.0120208251980332
"2908",0.00133275017202994
"2909",0.0117293592342724
"2910",-0.00551986681925243
"2911",-0.00411299924019559
"2912",0.00111365309814548
"2913",-0.0139902083320971
"2914",-0.00628885701924897
"2915",-0.0112295788266303
"2916",-2.76789792010845e-05
"2917",-0.000207616767875507
"2918",0.0206868026907152
"2919",0.0185786315626268
"2920",0.0142982283918149
"2921",-0.000157459651290104
"2922",0.00650079134467862
"2923",0.0122066513327947
"2924",0.00394619807312413
"2925",0.0026904122307414
"2926",-0.0131490184815615
"2927",0.010381630870075
"2928",0.00258825181327804
"2929",0.000345447453840464
"2930",0.000306964253865338
"2931",-0.000140680253200465
"2932",0.00876103910175186
"2933",0.00189996130569359
"2934",-0.0022296553272696
"2935",-0.00306119447714082
"2936",0.00661867811531636
"2937",0.00995921466535421
"2938",0.00228714363097193
"2939",0.00845313571105866
"2940",0.0110914603619117
"2941",0.0271603892438765
"2942",-0.000870109414530695
"2943",-0.0070483080946504
"2944",0.0063325823778948
"2945",0.0115085625858375
"2946",0.0074979784817284
"2947",0.00666322940950792
