"","sum","sd"
"1",-0.0426276959968108,0.00111946743107163
"2",0.063702365624934,0.00100014932264081
"3",-0.00813361304104721,3.34220874669517e-05
"4",-0.00106178358825026,3.22092955390343e-05
"5",-0.0387229194281637,0.000759894158710079
"6",-0.00110490171211097,0.000299801732425314
"7",0.0074464311262723,0.000351589595808899
"8",-0.0470328313032944,0.000856859545270746
"9",0.031115079831741,0.00070641047805884
"10",-0.033092296605628,0.00209683167284107
"11",0.110688393529401,0.00606334666643305
"12",-0.0531588956652778,0.00173390856079778
"13",0.0110162200153319,0.00116041573306683
"14",0.00908193903457732,0.000752090049662193
"15",0.0283247651714049,0.000970304567738432
"16",0.0586241483424343,0.00137062052158106
"17",-0.021798681941001,0.000900401101467617
"18",-0.00312524047148699,0.000673442231108269
"19",-0.00806473625327797,0.00015316065209582
"20",-0.0411536428168402,0.000671780623602688
"21",0.000625371811538322,4.53246134764116e-05
"22",-0.0308138303663332,0.000865678452539923
"23",0.0130141819302816,0.000677969557220274
"24",-0.00758795183410754,0.000377092824448666
"25",-0.00318002649086679,0.000591061591048272
"26",-0.0206560615258287,0.0011204291341193
"27",-0.0436915817429284,0.000649858763445408
"28",-0.00926259417090591,0.001015122678707
"29",0.0296925084714497,0.00140823263552714
"30",-0.0311628981360457,0.000809084110808464
"31",-0.0107810422284995,0.00119194639331745
"32",-0.0211398063013464,0.00045205858380451
"33",-0.0370605460307107,0.000730143432880469
"34",-0.0209117256325131,0.00176614308776214
"35",-0.0444782577116056,0.00591375685936919
"36",-0.0350526287305266,0.00308200634000407
"37",0.0477592067196593,0.00116866825228489
"38",-0.00385640875439552,0.00170720874630274
"39",0.0331547084601311,0.00184811899264298
"40",0.0161740496270806,0.000840000760171946
"41",-0.0258669379220882,0.000580998549018283
"42",-0.00394122462758961,0.000158430864482576
"43",-0.0452760930200835,0.000962634191230343
"44",0.0377447003607863,0.000887059525777992
"45",-0.00217178005290908,0.0012992781169699
"46",-0.00566498232652801,0.000754300196753291
"47",-0.0107223934777796,0.00121842120752858
"48",-0.0388768132907522,0.000899398058598593
"49",0.0169821877740057,0.000757357648150723
"50",0.0110657711174333,0.00130768996053733
"51",-0.0399175344468228,0.000771413907399491
"52",-0.00453866268038094,0.00108804106745019
"53",-0.00888229954947395,0.00076079656703521
"54",-0.0319209960581217,0.00119966971942219
"55",0.0429021888557362,0.00080372289974721
"56",0.00678608267361192,0.00159218574710337
"57",0.04059268973133,0.00086578841124021
"58",0.0729500727962744,0.00277118251385975
"59",-0.00987597411114383,0.0014735974832846
"60",-0.02215309628202,0.00114497426851531
"61",-0.0185648547038957,0.000716946832305843
"62",0.0342444895939922,0.000480566828000706
"63",-0.0228709166818009,0.000619484028995527
"64",0.0372149676895654,0.000438614054204565
"65",-0.021801893715292,0.000155003208672101
"66",0.00814557857071474,0.000272648766176193
"67",0.0129779105452075,0.00060534372121908
"68",0.0282975474336462,0.000250334739055593
"69",-0.0137989418167717,8.76223745546917e-05
"70",-0.0118599385999918,0.000334962898365185
"71",-0.0307547376489881,0.000514129792018487
"72",-0.0491638892094262,0.00226664580404467
"73",-0.0286779328060831,0.00167176899487461
"74",0.0387350137026745,0.00127091330850043
"75",-0.0157429805171025,0.000935700684662392
"76",-0.00695512572899659,0.0011174654030244
"77",-0.0426026580142169,0.000771298367947501
"78",-0.00975830185341042,0.00148958749005035
"79",0.00144899612023774,0.000875539545606591
"80",0.00183169295431362,0.00104908822620244
"81",-0.000759329122429264,0.000517423847258782
"82",-0.024586740004418,0.0010854712032974
"83",-0.0365134061418351,0.00176070965651463
"84",0.0181735496979911,0.000408175802969944
"85",0.00665799440139381,0.00146079629640591
"86",-0.00620188909832109,0.00147035537991101
"87",-0.0680355720058587,0.00196528120157704
"88",0.0185378126718767,0.00177799755235933
"89",-0.0161350396225064,0.00110462179212087
"90",0.000220255381207402,0.000401495453638848
"91",0.0234838623143112,0.00063813272815449
"92",-0.0544428074202807,0.00134878148982372
"93",-0.00672967002229807,0.00126616215096232
"94",0.0452291100973818,0.00107692904673074
"95",0.00619296442354322,0.000852164770654602
"96",-0.0263308755859875,0.000208649127310564
"97",-0.0434086870890003,0.000841860946006958
"98",0.0328238305506572,0.000532468391714059
"99",-0.00405347328579442,0.000832828254705127
"100",0.019754748026668,0.000230901374816088
"101",0.0106057112081661,0.00047880336518472
"102",-0.0476491863155051,0.00065049651852455
"103",0.017765059331416,0.000522588629725694
"104",0.0213200065920889,0.000370838382908667
"105",-0.0211295372035147,0.000209557917654041
"106",-0.0257784764746072,0.000573424263884814
"107",-0.0279416282889757,0.000802538348686
"108",-0.0127796054875802,0.000882574482455476
"109",0.0561139844881184,0.00162934618948806
"110",-0.0536490200238733,0.00210805870512478
"111",0.0282519509502759,0.000498641256271533
"112",-0.0441002242788358,0.000460777383477965
"113",0.0331969116631727,0.000457886744010882
"114",-0.0364383218660631,0.0007510798515217
"115",0.0623655177149631,0.00137895671792402
"116",0.0110585167798165,0.000272613973618544
"117",-0.0270451372231477,0.000374406218836647
"118",0.0153301493166405,0.000512567774476679
"119",0.0342241678851618,0.000346779722211087
"120",0.027539349625946,0.000333010933025874
"121",0.0213548957000222,0.000438233695744842
"122",-0.0101794356336802,0.000637720123850274
"123",0.066382433011082,0.00147060458501792
"124",0.035480854890765,0.000541883299407236
"125",-0.0312264502388313,0.00101192991297073
"126",-0.00422266718426378,0.000694936998743165
"127",-0.00622922737800824,0.000471157061504709
"128",-0.0253232670210428,0.000237958762296364
"129",0.0531836139104058,0.000738814278747717
"130",0.0441879612828,0.000538196362478776
"131",-0.0160455543985787,0.000137666893754157
"132",0.0362932299001253,0.000710004375973036
"133",-0.00613391337876035,0.000690675346587351
"134",0.044038520558245,0.000802469836915305
"135",-0.0569248028199212,0.00140950376872603
"136",0.0558120656056103,0.000949996950299639
"137",0.0171328078233506,0.000791668560251629
"138",0.00550303596380353,0.000372736526200298
"139",-0.045020672649315,0.00353091478043668
"140",0.0171975649267315,0.000914842393915885
"141",-0.0552455795574485,0.00156576543070053
"142",-0.054082129547103,0.00197049346905165
"143",0.0540324344266567,0.000783352832908357
"144",0.017068321374091,0.000576701612283001
"145",-0.0322711138788705,0.000993381844837874
"146",0.00467154134240033,0.00121070017223782
"147",0.0227413426959746,0.000253791356971972
"148",0.0320018033393294,0.000578514676190963
"149",-0.00669798702852109,0.000305707338490267
"150",0.0282035852657119,0.000394986059928197
"151",-0.0228949367169573,0.00017055867496086
"152",-0.0237531703709761,0.000452893119204871
"153",0.0150498120028928,0.000152227862846901
"154",0.0168878043784844,0.000139196955773038
"155",0.0221470548447353,0.0010147604644833
"156",0.0438655719432637,0.000696544996153365
"157",-0.0211232042703102,0.000219512308967999
"158",0.0273635841354247,0.000652862192869544
"159",0.0330395026120858,0.000516620568266914
"160",0.0066765198104628,9.90515591876617e-05
"161",0.00560829406952656,0.000514765496762897
"162",0.00445741069137551,0.000612906327519979
"163",0.0111731148215339,0.000458535902692873
"164",-0.0373791863134745,0.000646572039367556
"165",-0.0613237565115021,0.00506000991716087
"166",0.0081424646302235,0.00245328480658751
"167",0.0194939694044365,0.000648214662811353
"168",-0.00630400093209627,0.000488940335641574
"169",0.0372585412329869,0.00068704235312118
"170",0.00405352575779094,0.000229522356721315
"171",0.00186664665844116,0.000544935926797184
"172",0.0165102291903096,0.000158811733518179
"173",-0.045992042881724,0.000496526977000325
"174",0.0141027305396584,0.000456759753719217
"175",-0.0138472565679839,0.000387391203874585
"176",0.00352591381689216,0.000645547877419191
"177",-0.028651989786395,0.000268177989034165
"178",-0.00935608227860296,0.000596028281169605
"179",0.0118098941333979,0.000304161140507376
"180",0.0248631346079025,0.000187911494908596
"181",-0.0116071192580645,0.000218457976541021
"182",0.00151931828728991,0.000394732809903569
"183",-0.00695799075168413,0.000306483546231071
"184",-0.0255161154934012,0.000181771933203576
"185",0.0446164318421456,0.000717486754767893
"186",-0.0147203110413345,0.000218024467808423
"187",-0.0266273510943646,0.000407966076808194
"188",-0.0181258796286423,0.000308353408772415
"189",0.0253669089765474,0.000473354051000821
"190",-0.00981303074745465,0.000239623133839298
"191",0.0173713587008022,0.000492483532444024
"192",-0.017298042902131,0.000351221276153342
"193",0.0175502065576785,0.000547659651938108
"194",-0.0243732215329242,0.00028634932019459
"195",0.0251113352359402,0.000251597768745285
"196",0.0207134870016805,0.000182328386311705
"197",0.00768231630258942,0.000191012949729094
"198",-0.00290794634276548,0.000234079394572443
"199",-0.00586785413830526,0.00015297917267708
"200",0.00753307507718493,8.28900792228565e-05
"201",0.0066071941687742,5.12168273633659e-05
"202",0.00968750677464314,9.09391477325132e-05
"203",0.00504454785911879,7.65953530180159e-05
"204",0.000651270428778439,0.00016795909758189
"205",0.0210057565843051,0.000117539845760646
"206",0.00659671052931277,0.00010794189912894
"207",0.00271298319744151,0.000149120726281006
"208",-0.00769202474460506,9.34416289900629e-05
"209",-0.00916214200786758,0.000417435361989872
"210",0.00587376913660353,0.000162034242467759
"211",-0.0701536920945838,0.00169845288968663
"212",0.0202356949031044,0.000354845020550124
"213",0.0162864484782013,0.000280218777220386
"214",-0.013948545614026,6.50439144960543e-05
"215",-0.00442457105427607,0.000611189706332853
"216",0.00223681104689533,0.000217976092250024
"217",0.0134910776684709,9.52105833033643e-05
"218",0.00108852315586816,0.000210665868130052
"219",0.0201273326221267,0.000153679417574306
"220",0.00096342817337014,1.66133787771784e-05
"221",0.00708205026875941,0.000206345199897744
"222",-0.00355173912519202,3.15065051202128e-05
"223",0.0132356175892276,6.44889990396701e-05
"224",-0.00254240624954782,7.39500602063416e-05
"225",0.0177698815419856,0.000113403929610361
"226",-0.0164013811793851,0.000213569197421146
"227",0.0466103943618617,0.000633141558067276
"228",0.016716091273679,0.000253794042525937
"229",-0.00884338519203531,0.000177464379605482
"230",0.0250444597528352,0.000220035411815007
"231",0.0147982210989497,0.000323969695863634
"232",0.0321024588367109,0.000469094415102557
"233",0.0355447731182572,0.000871281913447394
"234",0.00583394868786868,0.000609403492990329
"235",-0.0013345355597032,0.00134075282034795
"236",-0.0170793695097036,0.000155956272553655
"237",0.0284157177511686,0.000426080412474699
"238",0.0487620707306533,0.000881839565359211
"239",-0.0002876687146669,0.000100168630915334
"240",0.0245137365451189,0.000660111593628298
"241",0.00766162677022475,0.000184320837276482
"242",0.034476512318161,0.000569665835859925
"243",0.0124103873010029,0.000862794900829322
"244",-0.0176381975385551,0.000415698386666643
"245",0.0301773349366217,0.000519560857262671
"246",0.02842133113875,0.00044941376325061
"247",-0.00205534044863587,0.000357000290458914
"248",-0.0346668794732148,0.00267626496589133
"249",0.039785499431253,0.00179317555943545
"250",0.0103818157652702,0.000276698782202213
"251",-0.0283495521808046,0.000841118675409968
"252",-0.0336207807832984,0.00109903736266616
"253",0.0260753091261732,0.00147009277254997
"254",-0.0213336517269731,0.000407158806477168
"255",0.0210483718624586,0.0006465661793797
"256",0.0100929509100629,0.000603321687209952
"257",0.0177858176695276,0.000261443656322631
"258",0.0352655669054895,0.00043263970127666
"259",0.0128541569080189,0.000328622571513077
"260",-0.033346051923048,0.00046675649983001
"261",-0.00483409643316968,0.000899334628302954
"262",0.00373987069233728,0.000100624277463924
"263",-0.00341842782019519,0.000488300645562015
"264",-0.0474038841466404,0.000974648043546315
"265",-0.0294538496589691,0.00119582894039659
"266",-9.46590224959465e-05,0.000768329272218318
"267",-0.0667658023671116,0.00216927960631034
"268",0.00253352335503365,0.00165233149778965
"269",0.0416125405143992,0.00201825274134275
"270",-0.000884764351988032,0.000385339640071567
"271",0.0157308919472694,0.000860594767839021
"272",-0.0136139289973656,0.000465653614901842
"273",-0.0231540136002675,0.00265141724722225
"274",0.0285423318288025,0.000595590192730595
"275",0.00785029150450356,7.96594755556344e-05
"276",0.00394968795347772,0.000742092274378325
"277",0.0394724734967999,0.000487675488395007
"278",-0.0132711391350497,0.000343655610479312
"279",0.00832426206266756,0.000428415020648622
"280",-0.00825635516916545,0.000464173562206051
"281",-0.0164878398578718,0.000350813762125627
"282",-0.0213441397756355,0.000346359532742841
"283",0.0410368735336846,0.000904511569343523
"284",0.00595716419916403,0.000489898555344438
"285",0.00190663652623613,0.000312956428409481
"286",0.0148950785633888,0.000118336922260908
"287",-0.0275082513697944,0.000488211002246299
"288",-0.0123923798584959,0.000158986564022502
"289",-0.00344881984736123,0.000428862799771876
"290",-0.0248862557098501,0.000885168983953736
"291",0.0317907566494977,0.000649446323758717
"292",0.012238977251009,0.000159619112936138
"293",0.0177613063319795,0.000157364752750518
"294",0.0117058947679149,0.000355647195757692
"295",0.00454300661063289,4.82260195916438e-05
"296",-0.00952157311258439,0.000710370189673725
"297",0.0259736361772092,0.00043998545480387
"298",0.018489107012571,0.000132620587499357
"299",-0.00962276646854132,7.16902318101729e-05
"300",0.00370980508479235,0.000418340148108817
"301",0.0275903574392871,0.000337347272544993
"302",0.0146331401099085,9.58207794423028e-05
"303",-0.0354481499469737,0.00118880666101557
"304",-0.011066054960736,0.00198291025264824
"305",-0.0156834266943759,0.00116681870938615
"306",0.0278005867044282,0.000495800691691188
"307",-0.0163971783064403,0.000160765959273927
"308",0.00202291736258697,0.000771555973526233
"309",-0.00676685084794393,0.000353722032608412
"310",0.00267598247267831,0.000434249874420107
"311",-0.00531799193551663,0.000221737850975925
"312",0.0255439728832716,0.00039432582310735
"313",-0.0191622629781643,0.000221551409298581
"314",0.0163330658621899,0.000302228646237369
"315",-0.00364439653411797,0.00026524590259267
"316",0.025483619759469,0.000219381515498575
"317",-0.0184886750535771,0.000226179749015481
"318",0.0214194338143301,0.000220946878809904
"319",-0.0241954608336687,0.000305870231023974
"320",0.023477601817266,0.000225016643209979
"321",-0.00829263151801296,0.000231115621285158
"322",0.00015838358274145,0.000293372006647536
"323",-0.0175858553823796,0.000299203239561073
"324",-0.03984076051049,0.000977445028309681
"325",0.00863673452882718,0.000139454711862723
"326",-0.0716026079933769,0.00191719028751355
"327",0.0154152587081029,0.0052915132344247
"328",-0.0149241387214474,0.000362643492882351
"329",0.000184904758635973,0.000964679967697751
"330",-0.0295357871798432,0.000521730663704242
"331",0.0189928114132156,0.00213482618354213
"332",0.040296364638456,0.000726301348967159
"333",0.0269678578184136,0.000460455175786007
"334",-0.0211920961911245,0.000638819593337003
"335",-0.0342357736180761,0.00097218659088628
"336",0.0230738800158612,0.000814931648960156
"337",-0.020504835571419,0.000889955184653495
"338",-0.079174604535349,0.0016879383990581
"339",0.00994536241178867,0.00136422391015576
"340",0.0043261151849725,0.000927416649361461
"341",0.0339708977120914,0.000978393313535153
"342",0.0196532418858473,0.000390282829224815
"343",-0.0664805485406985,0.00125441896730247
"344",0.0291897222606829,0.00049177880459892
"345",-0.0517516633671553,0.00268519279832451
"346",-0.0681637293508635,0.00271491568758709
"347",-0.0351791034319504,0.00616317620757072
"348",0.0470369055822779,0.00481581325200492
"349",-0.0311031751627349,0.00239775156868813
"350",0.0225845498759316,0.00149057681758052
"351",-0.0101798142913037,0.00181029835840451
"352",0.00219983835618986,0.00137972928526133
"353",-0.0595109574274799,0.00302560677406679
"354",-0.0446940422746449,0.00205504957391622
"355",0.0255828097848152,0.00269452899036787
"356",-0.00918307227536808,0.00116208904072171
"357",0.0736220295790364,0.00231123437728304
"358",-0.0465546647153916,0.00193827346099859
"359",0.0661826183808456,0.00100070853526136
"360",0.0224570007112996,0.00112058447375761
"361",0.00819107223511395,0.000966969215240878
"362",0.0144046571643095,0.000987739588051164
"363",-0.00952202654298073,0.000560355674428065
"364",0.000695576595809655,0.0016459646799168
"365",0.0312458575708066,0.000969307290786084
"366",-0.0439949122649468,0.000987036947866919
"367",0.00909913753621527,0.00113713929800718
"368",-0.0226521325413236,0.00024014357981732
"369",-0.0353978405509663,0.000541688562467153
"370",-0.00560883430241166,0.000658738938596767
"371",-0.0212268335343166,0.00064537988383589
"372",0.0270359528583892,0.00216891067193683
"373",-0.0197189816587935,0.00106444560504689
"374",-0.0102651659819877,0.00114451359945577
"375",-0.0100669314297708,0.00076982092230142
"376",-0.0250771137890062,0.000780094352825275
"377",0.0309923515386465,0.00125174327551375
"378",-0.0691830302587118,0.00156234221467472
"379",0.00541729745145858,0.0026710102643606
"380",-0.00725527397259995,0.00555481958108476
"381",-0.0720847414692516,0.00181811132911848
"382",-0.106443183419882,0.00415048858822578
"383",-0.0228655881472699,0.0290431340011545
"384",-0.0718893096377595,0.0187847242483885
"385",-0.0685447510555202,0.0181277959868647
"386",0.0908639040748334,0.0174801215918102
"387",-0.0822179887786767,0.00601614429359999
"388",-0.0682443512287421,0.00370194965273268
"389",0.0650034000258248,0.0024713485731704
"390",-0.0602338953521722,0.00299079345577133
"391",0.0342038731720882,0.00368801701572185
"392",0.0255627464489514,0.00227781245702962
"393",0.0240835698811033,0.00132923856402083
"394",0.00713431094524353,0.00156194287130636
"395",-0.051238884612852,0.0040672314952953
"396",-0.0557375440675578,0.00168402371032307
"397",0.0261309347435992,0.00350850485249121
"398",-0.00402557220199729,0.00113570366078293
"399",-0.0265752951614751,0.000852019538981413
"400",-0.0462689974953507,0.000713829615325314
"401",-0.000938858607473669,0.00173395820017697
"402",-0.0333013500105572,0.00132166203509409
"403",0.042920195679689,0.00333181333169911
"404",0.0914552806717772,0.00254585082750321
"405",-0.0492541461895302,0.00245313545152962
"406",0.0734208341671163,0.00234370048379552
"407",0.0129117198108544,0.00154982099065823
"408",-0.0151722599361142,0.000818707020677878
"409",-0.0228047698207074,0.00093179199569723
"410",0.103406613551054,0.00327353257485768
"411",-0.0462995152885757,0.00229389413960385
"412",0.0267300775265733,0.00072216448993356
"413",0.032884802420714,0.000381830763571859
"414",0.0156248931485754,0.000179904807105526
"415",0.0212741050288585,0.000637174754703399
"416",-0.0260433057392468,0.00152016862678667
"417",-0.00779196455153741,0.00109463723477756
"418",-0.0031733205309008,0.000362471476490318
"419",-0.068021047268382,0.00135819947672293
"420",0.0560361411103365,0.00113530267953473
"421",0.0312088571021558,0.000277433964732208
"422",0.0305875683987926,0.000309888460578894
"423",0.0149961672498318,0.000354907608331277
"424",-0.0248040711750193,0.000927777882745586
"425",0.0161380586818289,0.00104590500886606
"426",0.00378514113577122,0.000305011715680264
"427",-0.023361912951561,0.000594468116494845
"428",-0.0147747136550258,0.000810329460010668
"429",-0.0106189582294638,0.00107027278894131
"430",-0.0534249684154693,0.00133299637387789
"431",0.0261340684398244,0.00048925831546474
"432",0.00883779031807119,0.000236707416937084
"433",0.00541696433931893,0.000246725878414342
"434",-0.0337001398233516,0.000843937672302681
"435",-0.00924147183442958,7.22877144377213e-05
"436",-0.0178559652058716,9.93808148480563e-05
"437",-0.0280561977616447,0.000435184077922067
"438",0.0300844778000169,0.00220212209666958
"439",0.0300536474633137,0.00141841549957437
"440",0.0149731099352488,0.000685293618895022
"441",0.0170312227529541,0.000323920812366022
"442",0.00221922287125498,0.000221496370092768
"443",0.0410565288494906,0.000459155193223963
"444",-0.00459060940950806,0.000571960886975183
"445",-0.0357563705195663,0.000855233196640967
"446",-0.00391424166677545,0.000610329301882426
"447",-0.0348343001310276,0.000594287116870477
"448",0.0258216115416152,0.00067233202252644
"449",-0.00993164935670876,0.00100741038679168
"450",0.0110585469724818,8.92283693356271e-05
"451",0.0183694152101159,0.000627828867449694
"452",0.0267307224504112,0.000220747027873031
"453",0.00494852449102812,0.000149881974921526
"454",0.0342039856413203,0.000466537110826983
"455",0.000740646831574487,0.000197684770674772
"456",0.0130084609747287,0.000150803948942755
"457",-0.0209711944780713,0.000756926902710844
"458",0.00902708640129557,0.000853517156806721
"459",-0.0564875891472703,0.00204166734317515
"460",-0.0240753272970968,0.000765651574049078
"461",-0.0583787270327063,0.00116177767604053
"462",0.012781759277332,0.000391594133746482
"463",-0.0228791323725774,0.0018875239825313
"464",0.0482205019435522,0.000609181586756561
"465",-0.01301605319457,0.00075644280158035
"466",-0.0457850568567739,0.000524679456636504
"467",0.00010695632032931,0.000500672951714296
"468",0.0341340431756398,0.000915879122072966
"469",-0.0533669049512637,0.000757184840568092
"470",0.042443008793275,0.000927089290681217
"471",-0.00486511353245334,0.000703242112385231
"472",-0.0347955119892038,0.000689624747323442
"473",0.0193813790351811,0.000244293416829035
"474",-0.0388871116087968,0.000598409261725235
"475",0.00935508689446252,0.00129604398082365
"476",0.00901443301264759,0.000707260095210332
"477",0.0213821672548935,0.000390995118428719
"478",0.0054191076000345,0.000357524342023878
"479",-0.0317722473967557,0.000598692301368579
"480",0.00225818688359158,0.000726358643129067
"481",0.0110111886633204,0.000503987131632137
"482",-0.0191206246568401,0.000228238228782385
"483",-0.0182848418960084,0.000124380890600296
"484",0.0602319581746791,0.00108294857685649
"485",-0.00314687216620335,0.000195152494356461
"486",0.0226855686015401,0.000629663725579872
"487",0.00847161939426844,0.000537863784647179
"488",0.0162711851241584,0.000128810785081296
"489",0.0136347520652382,0.000147876259985578
"490",-0.00241484470715569,0.000119629097630631
"491",0.0111831589095441,0.000358250586832574
"492",0.0193767466524708,0.000208037672128496
"493",0.00774711751954893,0.000182881786108172
"494",-0.0153054060336775,0.000695169659317042
"495",0.00755828851412854,0.000604256784531476
"496",0.0153499379299378,0.000118491097572706
"497",0.0314076781179136,0.000267411338293667
"498",-0.0418430739488889,0.00063383131828501
"499",0.0153701290725436,0.000848805627788664
"500",-0.0189946813125372,0.000511472476095324
"501",-0.138065989712936,0.0204385813613948
"502",0.0558598129785359,0.00269711907411793
"503",0.00609304210617534,0.00049809054638465
"504",-0.0110623305005451,0.000513692631196537
"505",-0.0139755110422239,0.000368408639773938
"506",0.00105733999764279,0.000309180295942683
"507",0.0273713749053091,0.000584483634764048
"508",-0.0189055657360369,0.000235695461583822
"509",-0.0207593567446711,0.000451845054517406
"510",-0.00579879500946134,0.000310324055093271
"511",-0.0015972511321527,0.000596331171164214
"512",-0.0156345673588527,0.000291577721746784
"513",-0.000664468203805058,0.000465465541697509
"514",0.015996238319433,0.000477866534806989
"515",0.0283169039725308,0.000508227713323735
"516",0.0247265025130341,0.000277503967769364
"517",-0.0157468981863831,0.000301258190761494
"518",0.0138265737859697,0.000217926416998752
"519",-0.0320929435825192,0.000382685004389638
"520",-0.0492205074164147,0.0016316058623611
"521",-0.0417739098597067,0.000916822825023084
"522",-0.0217130934682279,0.000718776079715986
"523",0.00580995957022079,0.000558019275278878
"524",0.017970795252217,0.000373847706345807
"525",-0.018460287711239,0.00102320579144142
"526",0.0163145176296409,0.00126881846480397
"527",-0.0258209877604694,0.00174917958181591
"528",-0.0166633478507752,0.000738824225565805
"529",0.0231747324501743,0.000762419773933845
"530",-0.0025914841106438,0.000724828862558199
"531",-0.00668907745883374,0.000392311267831899
"532",-0.0106394011300868,0.00129950040733339
"533",-0.011274015169616,0.00150836009863388
"534",-0.00355279144082488,0.000244072267313125
"535",-0.0294378822601944,0.000402409004065881
"536",0.0517644542489197,0.000819214128250339
"537",-0.00812277616568746,0.0006087122029547
"538",-0.0199229401748431,0.000495162353654736
"539",0.00397241901686396,0.000240725615614526
"540",0.0225266938266868,0.000487002847622764
"541",-0.0215498020532658,0.000254842859263786
"542",0.0184358995458958,0.000424739321506248
"543",0.0317972167411504,0.000579917591492926
"544",-0.00282896734974436,0.000103089577029395
"545",0.0284968925582287,0.00032196611485048
"546",0.0198903537307231,0.00052664577859602
"547",0.0357180826020791,0.000428514519140818
"548",0.00263714185671393,8.86531111094116e-05
"549",0.00554057902348148,0.000430520351903955
"550",0.0323012956762874,0.000486941564440071
"551",-0.0129128788542019,0.000277759138291025
"552",0.00213254673994978,0.000732395628994438
"553",-0.0340973236080613,0.000463277866931502
"554",-0.0124667253572825,0.000375516168622918
"555",-0.00435045112299726,0.000652639055190675
"556",-0.00949141210666848,0.000157013863382666
"557",-0.0489748207041405,0.00129754947576086
"558",-0.0358246868290015,0.000374422585354405
"559",-0.0237061325613306,0.00137384849010248
"560",0.00283699911425206,9.17957477504624e-05
"561",-0.00701718337962465,0.00115487239656407
"562",0.0109066825108703,0.000965395251241714
"563",0.0283643436805106,0.000604524996994949
"564",-0.00249192931834408,0.000303767363755432
"565",0.043597556370476,0.000637546910780626
"566",-0.0278795913568972,0.000201231729928092
"567",-0.0135070717834562,0.000283729712170197
"568",-0.0440825387972659,0.00105865624266103
"569",0.0249617557394801,0.00044607935656665
"570",0.0254051189697044,0.000606425658451734
"571",0.00963633231099692,0.000311511647831085
"572",0.00717987477730375,9.67594039051782e-05
"573",-0.0275810055165353,0.000340189504229634
"574",-0.0338973792052242,0.000438703523957004
"575",0.0344887691231337,0.00072988542692921
"576",0.0161937685540625,0.000580481236711122
"577",-0.0253862876443316,0.000585076905387888
"578",-0.000393340346192872,0.000202256132182932
"579",-0.0193688766032514,0.000487296134264928
"580",0.0416255554498228,0.000557693694988466
"581",-0.0179654368052375,0.000407237064831865
"582",0.0102806213714173,0.000400487070634188
"583",-0.0345079903200265,0.000379536078380398
"584",0.0533283668980804,0.000977592562297112
"585",0.0251865933300488,0.000214098215612904
"586",0.000473275909497417,0.000287587554996393
"587",0.00522947034983456,9.47277245444975e-05
"588",0.0384096324846128,0.000342699879042902
"589",0.0370831166984278,0.000960671093634217
